"TIMESTAMP";"T OUTSIDE";"WIND SPEED";"SOLAR RADIATION"
20110101 0000;10;8;9
20110101 0005;10;8;9
20110101 0010;10;8;9
20110101 0015;10;8;9
20110101 0020;10;8;9
20110101 0025;10;8;9
20110101 0030;10;8;9
20110101 0035;10;8;9
20110101 0040;10;8;9
20110101 0045;10;8;9
20110101 0050;10;8;9
20110101 0055;10;8;9
20110101 0100;10;8;9
20110101 0105;10;8;9
20110101 0110;10;8;9
20110101 0115;10;8;9
20110101 0120;10;8;9
20110101 0125;10;8;9
20110101 0130;10;8;9
20110101 0135;10;8;9
20110101 0140;10;8;9
20110101 0145;10;8;9
20110101 0150;10;8;9
20110101 0155;10;8;9
20110101 0200;10;8;9
20110101 0205;10;8;9
20110101 0210;10;8;9
20110101 0215;10;8;9
20110101 0220;10;8;9
20110101 0225;10;8;9
20110101 0230;10;8;9
20110101 0235;10;8;9
20110101 0240;10;8;9
20110101 0245;10;8;9
20110101 0250;10;8;9
20110101 0255;10;8;9
20110101 0300;10;8;9
20110101 0305;10;8;9
20110101 0310;10;8;9
20110101 0315;10;8;9
20110101 0320;10;8;9
20110101 0325;10;8;9
20110101 0330;10;8;9
20110101 0335;10;8;9
20110101 0340;10;8;9
20110101 0345;10;8;9
20110101 0350;10;8;9
20110101 0355;10;8;9
20110101 0400;10;8;9
20110101 0405;10;8;9
20110101 0410;10;8;9
20110101 0415;10;8;9
20110101 0420;10;8;9
20110101 0425;10;8;9
20110101 0430;10;8;9
20110101 0435;10;8;9
20110101 0440;10;8;9
20110101 0445;10;8;9
20110101 0450;10;8;9
20110101 0455;10;8;9
20110101 0500;10;8;9
20110101 0505;10;8;9
20110101 0510;10;8;9
20110101 0515;10;8;9
20110101 0520;10;8;9
20110101 0525;10;8;9
20110101 0530;10;8;9
20110101 0535;10;8;9
20110101 0540;10;8;9
20110101 0545;10;8;9
20110101 0550;10;8;9
20110101 0555;10;8;9
20110101 0600;10;8;9
20110101 0605;10;8;9
20110101 0610;10;8;9
20110101 0615;10;8;9
20110101 0620;10;8;9
20110101 0625;10;8;9
20110101 0630;10;8;9
20110101 0635;10;8;9
20110101 0640;10;8;9
20110101 0645;10;8;9
20110101 0650;10;8;9
20110101 0655;10;8;9
20110101 0700;10;8;9
20110101 0705;10;8;9
20110101 0710;10;8;9
20110101 0715;10;8;9
20110101 0720;10;8;9
20110101 0725;10;8;9
20110101 0730;10;8;9
20110101 0735;10;8;9
20110101 0740;10;8;9
20110101 0745;10;8;9
20110101 0750;10;8;9
20110101 0755;10;8;9
20110101 0800;10;8;9
20110101 0805;10;8;9
20110101 0810;10;8;9
20110101 0815;10;8;9
20110101 0820;10;8;9
20110101 0825;10;8;9
20110101 0830;10;8;9
20110101 0835;10;8;9
20110101 0840;10;8;9
20110101 0845;10;8;9
20110101 0850;10;8;9
20110101 0855;10;8;9
20110101 0900;10;8;9
20110101 0905;10;8;9
20110101 0910;10;8;9
20110101 0915;10;8;9
20110101 0920;10;8;9
20110101 0925;10;8;9
20110101 0930;10;8;9
20110101 0935;10;8;9
20110101 0940;10;8;9
20110101 0945;10;8;9
20110101 0950;10;8;9
20110101 0955;10;8;9
20110101 1000;10;8;9
20110101 1005;10;8;9
20110101 1010;10;8;9
20110101 1015;10;8;9
20110101 1020;10;8;9
20110101 1025;10;8;9
20110101 1030;10;8;9
20110101 1035;10;8;9
20110101 1040;10;8;9
20110101 1045;10;8;9
20110101 1050;10;8;9
20110101 1055;10;8;9
20110101 1100;10;8;9
20110101 1105;10;8;9
20110101 1110;10;8;9
20110101 1115;10;8;9
20110101 1120;10;8;9
20110101 1125;10;8;9
20110101 1130;10;8;9
20110101 1135;10;8;9
20110101 1140;10;8;9
20110101 1145;10;8;9
20110101 1150;10;8;9
20110101 1155;10;8;9
20110101 1200;10;8;9
20110101 1205;10;8;9
20110101 1210;10;8;9
20110101 1215;10;8;9
20110101 1220;10;8;9
20110101 1225;10;8;9
20110101 1230;10;8;9
20110101 1235;10;8;9
20110101 1240;10;8;9
20110101 1245;10;8;9
20110101 1250;10;8;9
20110101 1255;10;8;9
20110101 1300;10;8;9
20110101 1305;10;8;9
20110101 1310;10;8;9
20110101 1315;10;8;9
20110101 1320;10;8;9
20110101 1325;10;8;9
20110101 1330;10;8;9
20110101 1335;10;8;9
20110101 1340;10;8;9
20110101 1345;10;8;9
20110101 1350;10;8;9
20110101 1355;10;8;9
20110101 1400;10;8;9
20110101 1405;10;8;9
20110101 1410;10;8;9
20110101 1415;10;8;9
20110101 1420;10;8;9
20110101 1425;10;8;9
20110101 1430;10;8;9
20110101 1435;10;8;9
20110101 1440;10;8;9
20110101 1445;10;8;9
20110101 1450;10;8;9
20110101 1455;10;8;9
20110101 1500;10;8;9
20110101 1505;10;8;9
20110101 1510;10;8;9
20110101 1515;10;8;9
20110101 1520;10;8;9
20110101 1525;10;8;9
20110101 1530;10;8;9
20110101 1535;10;8;9
20110101 1540;10;8;9
20110101 1545;10;8;9
20110101 1550;10;8;9
20110101 1555;10;8;9
20110101 1600;10;8;9
20110101 1605;10;8;9
20110101 1610;10;8;9
20110101 1615;10;8;9
20110101 1620;10;8;9
20110101 1625;10;8;9
20110101 1630;10;8;9
20110101 1635;10;8;9
20110101 1640;10;8;9
20110101 1645;10;8;9
20110101 1650;10;8;9
20110101 1655;10;8;9
20110101 1700;10;8;9
20110101 1705;10;8;9
20110101 1710;10;8;9
20110101 1715;10;8;9
20110101 1720;10;8;9
20110101 1725;10;8;9
20110101 1730;10;8;9
20110101 1735;10;8;9
20110101 1740;10;8;9
20110101 1745;10;8;9
20110101 1750;10;8;9
20110101 1755;10;8;9
20110101 1800;10;8;9
20110101 1805;10;8;9
20110101 1810;10;8;9
20110101 1815;10;8;9
20110101 1820;10;8;9
20110101 1825;10;8;9
20110101 1830;10;8;9
20110101 1835;10;8;9
20110101 1840;10;8;9
20110101 1845;10;8;9
20110101 1850;10;8;9
20110101 1855;10;8;9
20110101 1900;10;8;9
20110101 1905;10;8;9
20110101 1910;10;8;9
20110101 1915;10;8;9
20110101 1920;10;8;9
20110101 1925;10;8;9
20110101 1930;10;8;9
20110101 1935;10;8;9
20110101 1940;10;8;9
20110101 1945;10;8;9
20110101 1950;10;8;9
20110101 1955;10;8;9
20110101 2000;10;8;9
20110101 2005;10;8;9
20110101 2010;10;8;9
20110101 2015;10;8;9
20110101 2020;10;8;9
20110101 2025;10;8;9
20110101 2030;10;8;9
20110101 2035;10;8;9
20110101 2040;10;8;9
20110101 2045;10;8;9
20110101 2050;10;8;9
20110101 2055;10;8;9
20110101 2100;10;8;9
20110101 2105;10;8;9
20110101 2110;10;8;9
20110101 2115;10;8;9
20110101 2120;10;8;9
20110101 2125;10;8;9
20110101 2130;10;8;9
20110101 2135;10;8;9
20110101 2140;10;8;9
20110101 2145;10;8;9
20110101 2150;10;8;9
20110101 2155;10;8;9
20110101 2200;10;8;9
20110101 2205;10;8;9
20110101 2210;10;8;9
20110101 2215;10;8;9
20110101 2220;10;8;9
20110101 2225;10;8;9
20110101 2230;10;8;9
20110101 2235;10;8;9
20110101 2240;10;8;9
20110101 2245;10;8;9
20110101 2250;10;8;9
20110101 2255;10;8;9
20110101 2300;10;8;9
20110101 2305;10;8;9
20110101 2310;10;8;9
20110101 2315;10;8;9
20110101 2320;10;8;9
20110101 2325;10;8;9
20110101 2330;10;8;9
20110101 2335;10;8;9
20110101 2340;10;8;9
20110101 2345;10;8;9
20110101 2350;10;8;9
20110101 2355;10;8;9
20110102 0000;10;8;9
20110102 0005;10;8;9
20110102 0010;10;8;9
20110102 0015;10;8;9
20110102 0020;10;8;9
20110102 0025;10;8;9
20110102 0030;10;8;9
20110102 0035;10;8;9
20110102 0040;10;8;9
20110102 0045;10;8;9
20110102 0050;10;8;9
20110102 0055;10;8;9
20110102 0100;10;8;9
20110102 0105;10;8;9
20110102 0110;10;8;9
20110102 0115;10;8;9
20110102 0120;10;8;9
20110102 0125;10;8;9
20110102 0130;10;8;9
20110102 0135;10;8;9
20110102 0140;10;8;9
20110102 0145;10;8;9
20110102 0150;10;8;9
20110102 0155;10;8;9
20110102 0200;10;8;9
20110102 0205;10;8;9
20110102 0210;10;8;9
20110102 0215;10;8;9
20110102 0220;10;8;9
20110102 0225;10;8;9
20110102 0230;10;8;9
20110102 0235;10;8;9
20110102 0240;10;8;9
20110102 0245;10;8;9
20110102 0250;10;8;9
20110102 0255;10;8;9
20110102 0300;10;8;9
20110102 0305;10;8;9
20110102 0310;10;8;9
20110102 0315;10;8;9
20110102 0320;10;8;9
20110102 0325;10;8;9
20110102 0330;10;8;9
20110102 0335;10;8;9
20110102 0340;10;8;9
20110102 0345;10;8;9
20110102 0350;10;8;9
20110102 0355;10;8;9
20110102 0400;10;8;9
20110102 0405;10;8;9
20110102 0410;10;8;9
20110102 0415;10;8;9
20110102 0420;10;8;9
20110102 0425;10;8;9
20110102 0430;10;8;9
20110102 0435;10;8;9
20110102 0440;10;8;9
20110102 0445;10;8;9
20110102 0450;10;8;9
20110102 0455;10;8;9
20110102 0500;10;8;9
20110102 0505;10;8;9
20110102 0510;10;8;9
20110102 0515;10;8;9
20110102 0520;10;8;9
20110102 0525;10;8;9
20110102 0530;10;8;9
20110102 0535;10;8;9
20110102 0540;10;8;9
20110102 0545;10;8;9
20110102 0550;10;8;9
20110102 0555;10;8;9
20110102 0600;10;8;9
20110102 0605;10;8;9
20110102 0610;10;8;9
20110102 0615;10;8;9
20110102 0620;10;8;9
20110102 0625;10;8;9
20110102 0630;10;8;9
20110102 0635;10;8;9
20110102 0640;10;8;9
20110102 0645;10;8;9
20110102 0650;10;8;9
20110102 0655;10;8;9
20110102 0700;10;8;9
20110102 0705;10;8;9
20110102 0710;10;8;9
20110102 0715;10;8;9
20110102 0720;10;8;9
20110102 0725;10;8;9
20110102 0730;10;8;9
20110102 0735;10;8;9
20110102 0740;10;8;9
20110102 0745;10;8;9
20110102 0750;10;8;9
20110102 0755;10;8;9
20110102 0800;10;8;9
20110102 0805;10;8;9
20110102 0810;10;8;9
20110102 0815;10;8;9
20110102 0820;10;8;9
20110102 0825;10;8;9
20110102 0830;10;8;9
20110102 0835;10;8;9
20110102 0840;10;8;9
20110102 0845;10;8;9
20110102 0850;10;8;9
20110102 0855;10;8;9
20110102 0900;10;8;9
20110102 0905;10;8;9
20110102 0910;10;8;9
20110102 0915;10;8;9
20110102 0920;10;8;9
20110102 0925;10;8;9
20110102 0930;10;8;9
20110102 0935;10;8;9
20110102 0940;10;8;9
20110102 0945;10;8;9
20110102 0950;10;8;9
20110102 0955;10;8;9
20110102 1000;10;8;9
20110102 1005;10;8;9
20110102 1010;10;8;9
20110102 1015;10;8;9
20110102 1020;10;8;9
20110102 1025;10;8;9
20110102 1030;10;8;9
20110102 1035;10;8;9
20110102 1040;10;8;9
20110102 1045;10;8;9
20110102 1050;10;8;9
20110102 1055;10;8;9
20110102 1100;10;8;9
20110102 1105;10;8;9
20110102 1110;10;8;9
20110102 1115;10;8;9
20110102 1120;10;8;9
20110102 1125;10;8;9
20110102 1130;10;8;9
20110102 1135;10;8;9
20110102 1140;10;8;9
20110102 1145;10;8;9
20110102 1150;10;8;9
20110102 1155;10;8;9
20110102 1200;10;8;9
20110102 1205;10;8;9
20110102 1210;10;8;9
20110102 1215;10;8;9
20110102 1220;10;8;9
20110102 1225;10;8;9
20110102 1230;10;8;9
20110102 1235;10;8;9
20110102 1240;10;8;9
20110102 1245;10;8;9
20110102 1250;10;8;9
20110102 1255;10;8;9
20110102 1300;10;8;9
20110102 1305;10;8;9
20110102 1310;10;8;9
20110102 1315;10;8;9
20110102 1320;10;8;9
20110102 1325;10;8;9
20110102 1330;10;8;9
20110102 1335;10;8;9
20110102 1340;10;8;9
20110102 1345;10;8;9
20110102 1350;10;8;9
20110102 1355;10;8;9
20110102 1400;10;8;9
20110102 1405;10;8;9
20110102 1410;10;8;9
20110102 1415;10;8;9
20110102 1420;10;8;9
20110102 1425;10;8;9
20110102 1430;10;8;9
20110102 1435;10;8;9
20110102 1440;10;8;9
20110102 1445;10;8;9
20110102 1450;10;8;9
20110102 1455;10;8;9
20110102 1500;10;8;9
20110102 1505;10;8;9
20110102 1510;10;8;9
20110102 1515;10;8;9
20110102 1520;10;8;9
20110102 1525;10;8;9
20110102 1530;10;8;9
20110102 1535;10;8;9
20110102 1540;10;8;9
20110102 1545;10;8;9
20110102 1550;10;8;9
20110102 1555;10;8;9
20110102 1600;10;8;9
20110102 1605;10;8;9
20110102 1610;10;8;9
20110102 1615;10;8;9
20110102 1620;10;8;9
20110102 1625;10;8;9
20110102 1630;10;8;9
20110102 1635;10;8;9
20110102 1640;10;8;9
20110102 1645;10;8;9
20110102 1650;10;8;9
20110102 1655;10;8;9
20110102 1700;10;8;9
20110102 1705;10;8;9
20110102 1710;10;8;9
20110102 1715;10;8;9
20110102 1720;10;8;9
20110102 1725;10;8;9
20110102 1730;10;8;9
20110102 1735;10;8;9
20110102 1740;10;8;9
20110102 1745;10;8;9
20110102 1750;10;8;9
20110102 1755;10;8;9
20110102 1800;10;8;9
20110102 1805;10;8;9
20110102 1810;10;8;9
20110102 1815;10;8;9
20110102 1820;10;8;9
20110102 1825;10;8;9
20110102 1830;10;8;9
20110102 1835;10;8;9
20110102 1840;10;8;9
20110102 1845;10;8;9
20110102 1850;10;8;9
20110102 1855;10;8;9
20110102 1900;10;8;9
20110102 1905;10;8;9
20110102 1910;10;8;9
20110102 1915;10;8;9
20110102 1920;10;8;9
20110102 1925;10;8;9
20110102 1930;10;8;9
20110102 1935;10;8;9
20110102 1940;10;8;9
20110102 1945;10;8;9
20110102 1950;10;8;9
20110102 1955;10;8;9
20110102 2000;10;8;9
20110102 2005;10;8;9
20110102 2010;10;8;9
20110102 2015;10;8;9
20110102 2020;10;8;9
20110102 2025;10;8;9
20110102 2030;10;8;9
20110102 2035;10;8;9
20110102 2040;10;8;9
20110102 2045;10;8;9
20110102 2050;10;8;9
20110102 2055;10;8;9
20110102 2100;10;8;9
20110102 2105;10;8;9
20110102 2110;10;8;9
20110102 2115;10;8;9
20110102 2120;10;8;9
20110102 2125;10;8;9
20110102 2130;10;8;9
20110102 2135;10;8;9
20110102 2140;10;8;9
20110102 2145;10;8;9
20110102 2150;10;8;9
20110102 2155;10;8;9
20110102 2200;10;8;9
20110102 2205;10;8;9
20110102 2210;10;8;9
20110102 2215;10;8;9
20110102 2220;10;8;9
20110102 2225;10;8;9
20110102 2230;10;8;9
20110102 2235;10;8;9
20110102 2240;10;8;9
20110102 2245;10;8;9
20110102 2250;10;8;9
20110102 2255;10;8;9
20110102 2300;10;8;9
20110102 2305;10;8;9
20110102 2310;10;8;9
20110102 2315;10;8;9
20110102 2320;10;8;9
20110102 2325;10;8;9
20110102 2330;10;8;9
20110102 2335;10;8;9
20110102 2340;10;8;9
20110102 2345;10;8;9
20110102 2350;10;8;9
20110102 2355;10;8;9
20110103 0000;10;8;9
20110103 0005;10;8;9
20110103 0010;10;8;9
20110103 0015;10;8;9
20110103 0020;10;8;9
20110103 0025;10;8;9
20110103 0030;10;8;9
20110103 0035;10;8;9
20110103 0040;10;8;9
20110103 0045;10;8;9
20110103 0050;10;8;9
20110103 0055;10;8;9
20110103 0100;10;8;9
20110103 0105;10;8;9
20110103 0110;10;8;9
20110103 0115;10;8;9
20110103 0120;10;8;9
20110103 0125;10;8;9
20110103 0130;10;8;9
20110103 0135;10;8;9
20110103 0140;10;8;9
20110103 0145;10;8;9
20110103 0150;10;8;9
20110103 0155;10;8;9
20110103 0200;10;8;9
20110103 0205;10;8;9
20110103 0210;10;8;9
20110103 0215;10;8;9
20110103 0220;10;8;9
20110103 0225;10;8;9
20110103 0230;10;8;9
20110103 0235;10;8;9
20110103 0240;10;8;9
20110103 0245;10;8;9
20110103 0250;10;8;9
20110103 0255;10;8;9
20110103 0300;10;8;9
20110103 0305;10;8;9
20110103 0310;10;8;9
20110103 0315;10;8;9
20110103 0320;10;8;9
20110103 0325;10;8;9
20110103 0330;10;8;9
20110103 0335;10;8;9
20110103 0340;10;8;9
20110103 0345;10;8;9
20110103 0350;10;8;9
20110103 0355;10;8;9
20110103 0400;10;8;9
20110103 0405;10;8;9
20110103 0410;10;8;9
20110103 0415;10;8;9
20110103 0420;10;8;9
20110103 0425;10;8;9
20110103 0430;10;8;9
20110103 0435;10;8;9
20110103 0440;10;8;9
20110103 0445;10;8;9
20110103 0450;10;8;9
20110103 0455;10;8;9
20110103 0500;10;8;9
20110103 0505;10;8;9
20110103 0510;10;8;9
20110103 0515;10;8;9
20110103 0520;10;8;9
20110103 0525;10;8;9
20110103 0530;10;8;9
20110103 0535;10;8;9
20110103 0540;10;8;9
20110103 0545;10;8;9
20110103 0550;10;8;9
20110103 0555;10;8;9
20110103 0600;10;8;9
20110103 0605;10;8;9
20110103 0610;10;8;9
20110103 0615;10;8;9
20110103 0620;10;8;9
20110103 0625;10;8;9
20110103 0630;10;8;9
20110103 0635;10;8;9
20110103 0640;10;8;9
20110103 0645;10;8;9
20110103 0650;10;8;9
20110103 0655;10;8;9
20110103 0700;10;8;9
20110103 0705;10;8;9
20110103 0710;10;8;9
20110103 0715;10;8;9
20110103 0720;10;8;9
20110103 0725;10;8;9
20110103 0730;10;8;9
20110103 0735;10;8;9
20110103 0740;10;8;9
20110103 0745;10;8;9
20110103 0750;10;8;9
20110103 0755;10;8;9
20110103 0800;10;8;9
20110103 0805;10;8;9
20110103 0810;10;8;9
20110103 0815;10;8;9
20110103 0820;10;8;9
20110103 0825;10;8;9
20110103 0830;10;8;9
20110103 0835;10;8;9
20110103 0840;10;8;9
20110103 0845;10;8;9
20110103 0850;10;8;9
20110103 0855;10;8;9
20110103 0900;10;8;9
20110103 0905;10;8;9
20110103 0910;10;8;9
20110103 0915;10;8;9
20110103 0920;10;8;9
20110103 0925;10;8;9
20110103 0930;10;8;9
20110103 0935;10;8;9
20110103 0940;10;8;9
20110103 0945;10;8;9
20110103 0950;10;8;9
20110103 0955;10;8;9
20110103 1000;10;8;9
20110103 1005;10;8;9
20110103 1010;10;8;9
20110103 1015;10;8;9
20110103 1020;10;8;9
20110103 1025;10;8;9
20110103 1030;10;8;9
20110103 1035;10;8;9
20110103 1040;10;8;9
20110103 1045;10;8;9
20110103 1050;10;8;9
20110103 1055;10;8;9
20110103 1100;10;8;9
20110103 1105;10;8;9
20110103 1110;10;8;9
20110103 1115;10;8;9
20110103 1120;10;8;9
20110103 1125;10;8;9
20110103 1130;10;8;9
20110103 1135;10;8;9
20110103 1140;10;8;9
20110103 1145;10;8;9
20110103 1150;10;8;9
20110103 1155;10;8;9
20110103 1200;10;8;9
20110103 1205;10;8;9
20110103 1210;10;8;9
20110103 1215;10;8;9
20110103 1220;10;8;9
20110103 1225;10;8;9
20110103 1230;10;8;9
20110103 1235;10;8;9
20110103 1240;10;8;9
20110103 1245;10;8;9
20110103 1250;10;8;9
20110103 1255;10;8;9
20110103 1300;10;8;9
20110103 1305;10;8;9
20110103 1310;10;8;9
20110103 1315;10;8;9
20110103 1320;10;8;9
20110103 1325;10;8;9
20110103 1330;10;8;9
20110103 1335;10;8;9
20110103 1340;10;8;9
20110103 1345;10;8;9
20110103 1350;10;8;9
20110103 1355;10;8;9
20110103 1400;10;8;9
20110103 1405;10;8;9
20110103 1410;10;8;9
20110103 1415;10;8;9
20110103 1420;10;8;9
20110103 1425;10;8;9
20110103 1430;10;8;9
20110103 1435;10;8;9
20110103 1440;10;8;9
20110103 1445;10;8;9
20110103 1450;10;8;9
20110103 1455;10;8;9
20110103 1500;10;8;9
20110103 1505;10;8;9
20110103 1510;10;8;9
20110103 1515;10;8;9
20110103 1520;10;8;9
20110103 1525;10;8;9
20110103 1530;10;8;9
20110103 1535;10;8;9
20110103 1540;10;8;9
20110103 1545;10;8;9
20110103 1550;10;8;9
20110103 1555;10;8;9
20110103 1600;10;8;9
20110103 1605;10;8;9
20110103 1610;10;8;9
20110103 1615;10;8;9
20110103 1620;10;8;9
20110103 1625;10;8;9
20110103 1630;10;8;9
20110103 1635;10;8;9
20110103 1640;10;8;9
20110103 1645;10;8;9
20110103 1650;10;8;9
20110103 1655;10;8;9
20110103 1700;10;8;9
20110103 1705;10;8;9
20110103 1710;10;8;9
20110103 1715;10;8;9
20110103 1720;10;8;9
20110103 1725;10;8;9
20110103 1730;10;8;9
20110103 1735;10;8;9
20110103 1740;10;8;9
20110103 1745;10;8;9
20110103 1750;10;8;9
20110103 1755;10;8;9
20110103 1800;10;8;9
20110103 1805;10;8;9
20110103 1810;10;8;9
20110103 1815;10;8;9
20110103 1820;10;8;9
20110103 1825;10;8;9
20110103 1830;10;8;9
20110103 1835;10;8;9
20110103 1840;10;8;9
20110103 1845;10;8;9
20110103 1850;10;8;9
20110103 1855;10;8;9
20110103 1900;10;8;9
20110103 1905;10;8;9
20110103 1910;10;8;9
20110103 1915;10;8;9
20110103 1920;10;8;9
20110103 1925;10;8;9
20110103 1930;10;8;9
20110103 1935;10;8;9
20110103 1940;10;8;9
20110103 1945;10;8;9
20110103 1950;10;8;9
20110103 1955;10;8;9
20110103 2000;10;8;9
20110103 2005;10;8;9
20110103 2010;10;8;9
20110103 2015;10;8;9
20110103 2020;10;8;9
20110103 2025;10;8;9
20110103 2030;10;8;9
20110103 2035;10;8;9
20110103 2040;10;8;9
20110103 2045;10;8;9
20110103 2050;10;8;9
20110103 2055;10;8;9
20110103 2100;10;8;9
20110103 2105;10;8;9
20110103 2110;10;8;9
20110103 2115;10;8;9
20110103 2120;10;8;9
20110103 2125;10;8;9
20110103 2130;10;8;9
20110103 2135;10;8;9
20110103 2140;10;8;9
20110103 2145;10;8;9
20110103 2150;10;8;9
20110103 2155;10;8;9
20110103 2200;10;8;9
20110103 2205;10;8;9
20110103 2210;10;8;9
20110103 2215;10;8;9
20110103 2220;10;8;9
20110103 2225;10;8;9
20110103 2230;10;8;9
20110103 2235;10;8;9
20110103 2240;10;8;9
20110103 2245;10;8;9
20110103 2250;10;8;9
20110103 2255;10;8;9
20110103 2300;10;8;9
20110103 2305;10;8;9
20110103 2310;10;8;9
20110103 2315;10;8;9
20110103 2320;10;8;9
20110103 2325;10;8;9
20110103 2330;10;8;9
20110103 2335;10;8;9
20110103 2340;10;8;9
20110103 2345;10;8;9
20110103 2350;10;8;9
20110103 2355;10;8;9
20110104 0000;10;8;9
20110104 0005;10;8;9
20110104 0010;10;8;9
20110104 0015;10;8;9
20110104 0020;10;8;9
20110104 0025;10;8;9
20110104 0030;10;8;9
20110104 0035;10;8;9
20110104 0040;10;8;9
20110104 0045;10;8;9
20110104 0050;10;8;9
20110104 0055;10;8;9
20110104 0100;10;8;9
20110104 0105;10;8;9
20110104 0110;10;8;9
20110104 0115;10;8;9
20110104 0120;10;8;9
20110104 0125;10;8;9
20110104 0130;10;8;9
20110104 0135;10;8;9
20110104 0140;10;8;9
20110104 0145;10;8;9
20110104 0150;10;8;9
20110104 0155;10;8;9
20110104 0200;10;8;9
20110104 0205;10;8;9
20110104 0210;10;8;9
20110104 0215;10;8;9
20110104 0220;10;8;9
20110104 0225;10;8;9
20110104 0230;10;8;9
20110104 0235;10;8;9
20110104 0240;10;8;9
20110104 0245;10;8;9
20110104 0250;10;8;9
20110104 0255;10;8;9
20110104 0300;10;8;9
20110104 0305;10;8;9
20110104 0310;10;8;9
20110104 0315;10;8;9
20110104 0320;10;8;9
20110104 0325;10;8;9
20110104 0330;10;8;9
20110104 0335;10;8;9
20110104 0340;10;8;9
20110104 0345;10;8;9
20110104 0350;10;8;9
20110104 0355;10;8;9
20110104 0400;10;8;9
20110104 0405;10;8;9
20110104 0410;10;8;9
20110104 0415;10;8;9
20110104 0420;10;8;9
20110104 0425;10;8;9
20110104 0430;10;8;9
20110104 0435;10;8;9
20110104 0440;10;8;9
20110104 0445;10;8;9
20110104 0450;10;8;9
20110104 0455;10;8;9
20110104 0500;10;8;9
20110104 0505;10;8;9
20110104 0510;10;8;9
20110104 0515;10;8;9
20110104 0520;10;8;9
20110104 0525;10;8;9
20110104 0530;10;8;9
20110104 0535;10;8;9
20110104 0540;10;8;9
20110104 0545;10;8;9
20110104 0550;10;8;9
20110104 0555;10;8;9
20110104 0600;10;8;9
20110104 0605;10;8;9
20110104 0610;10;8;9
20110104 0615;10;8;9
20110104 0620;10;8;9
20110104 0625;10;8;9
20110104 0630;10;8;9
20110104 0635;10;8;9
20110104 0640;10;8;9
20110104 0645;10;8;9
20110104 0650;10;8;9
20110104 0655;10;8;9
20110104 0700;10;8;9
20110104 0705;10;8;9
20110104 0710;10;8;9
20110104 0715;10;8;9
20110104 0720;10;8;9
20110104 0725;10;8;9
20110104 0730;10;8;9
20110104 0735;10;8;9
20110104 0740;10;8;9
20110104 0745;10;8;9
20110104 0750;10;8;9
20110104 0755;10;8;9
20110104 0800;10;8;9
20110104 0805;10;8;9
20110104 0810;10;8;9
20110104 0815;10;8;9
20110104 0820;10;8;9
20110104 0825;10;8;9
20110104 0830;10;8;9
20110104 0835;10;8;9
20110104 0840;10;8;9
20110104 0845;10;8;9
20110104 0850;10;8;9
20110104 0855;10;8;9
20110104 0900;10;8;9
20110104 0905;10;8;9
20110104 0910;10;8;9
20110104 0915;10;8;9
20110104 0920;10;8;9
20110104 0925;10;8;9
20110104 0930;10;8;9
20110104 0935;10;8;9
20110104 0940;10;8;9
20110104 0945;10;8;9
20110104 0950;10;8;9
20110104 0955;10;8;9
20110104 1000;10;8;9
20110104 1005;10;8;9
20110104 1010;10;8;9
20110104 1015;10;8;9
20110104 1020;10;8;9
20110104 1025;10;8;9
20110104 1030;10;8;9
20110104 1035;10;8;9
20110104 1040;10;8;9
20110104 1045;10;8;9
20110104 1050;10;8;9
20110104 1055;10;8;9
20110104 1100;10;8;9
20110104 1105;10;8;9
20110104 1110;10;8;9
20110104 1115;10;8;9
20110104 1120;10;8;9
20110104 1125;10;8;9
20110104 1130;10;8;9
20110104 1135;10;8;9
20110104 1140;10;8;9
20110104 1145;10;8;9
20110104 1150;10;8;9
20110104 1155;10;8;9
20110104 1200;10;8;9
20110104 1205;10;8;9
20110104 1210;10;8;9
20110104 1215;10;8;9
20110104 1220;10;8;9
20110104 1225;10;8;9
20110104 1230;10;8;9
20110104 1235;10;8;9
20110104 1240;10;8;9
20110104 1245;10;8;9
20110104 1250;10;8;9
20110104 1255;10;8;9
20110104 1300;10;8;9
20110104 1305;10;8;9
20110104 1310;10;8;9
20110104 1315;10;8;9
20110104 1320;10;8;9
20110104 1325;10;8;9
20110104 1330;10;8;9
20110104 1335;10;8;9
20110104 1340;10;8;9
20110104 1345;10;8;9
20110104 1350;10;8;9
20110104 1355;10;8;9
20110104 1400;10;8;9
20110104 1405;10;8;9
20110104 1410;10;8;9
20110104 1415;10;8;9
20110104 1420;10;8;9
20110104 1425;10;8;9
20110104 1430;10;8;9
20110104 1435;10;8;9
20110104 1440;10;8;9
20110104 1445;10;8;9
20110104 1450;10;8;9
20110104 1455;10;8;9
20110104 1500;10;8;9
20110104 1505;10;8;9
20110104 1510;10;8;9
20110104 1515;10;8;9
20110104 1520;10;8;9
20110104 1525;10;8;9
20110104 1530;10;8;9
20110104 1535;10;8;9
20110104 1540;10;8;9
20110104 1545;10;8;9
20110104 1550;10;8;9
20110104 1555;10;8;9
20110104 1600;10;8;9
20110104 1605;10;8;9
20110104 1610;10;8;9
20110104 1615;10;8;9
20110104 1620;10;8;9
20110104 1625;10;8;9
20110104 1630;10;8;9
20110104 1635;10;8;9
20110104 1640;10;8;9
20110104 1645;10;8;9
20110104 1650;10;8;9
20110104 1655;10;8;9
20110104 1700;10;8;9
20110104 1705;10;8;9
20110104 1710;10;8;9
20110104 1715;10;8;9
20110104 1720;10;8;9
20110104 1725;10;8;9
20110104 1730;10;8;9
20110104 1735;10;8;9
20110104 1740;10;8;9
20110104 1745;10;8;9
20110104 1750;10;8;9
20110104 1755;10;8;9
20110104 1800;10;8;9
20110104 1805;10;8;9
20110104 1810;10;8;9
20110104 1815;10;8;9
20110104 1820;10;8;9
20110104 1825;10;8;9
20110104 1830;10;8;9
20110104 1835;10;8;9
20110104 1840;10;8;9
20110104 1845;10;8;9
20110104 1850;10;8;9
20110104 1855;10;8;9
20110104 1900;10;8;9
20110104 1905;10;8;9
20110104 1910;10;8;9
20110104 1915;10;8;9
20110104 1920;10;8;9
20110104 1925;10;8;9
20110104 1930;10;8;9
20110104 1935;10;8;9
20110104 1940;10;8;9
20110104 1945;10;8;9
20110104 1950;10;8;9
20110104 1955;10;8;9
20110104 2000;10;8;9
20110104 2005;10;8;9
20110104 2010;10;8;9
20110104 2015;10;8;9
20110104 2020;10;8;9
20110104 2025;10;8;9
20110104 2030;10;8;9
20110104 2035;10;8;9
20110104 2040;10;8;9
20110104 2045;10;8;9
20110104 2050;10;8;9
20110104 2055;10;8;9
20110104 2100;10;8;9
20110104 2105;10;8;9
20110104 2110;10;8;9
20110104 2115;10;8;9
20110104 2120;10;8;9
20110104 2125;10;8;9
20110104 2130;10;8;9
20110104 2135;10;8;9
20110104 2140;10;8;9
20110104 2145;10;8;9
20110104 2150;10;8;9
20110104 2155;10;8;9
20110104 2200;10;8;9
20110104 2205;10;8;9
20110104 2210;10;8;9
20110104 2215;10;8;9
20110104 2220;10;8;9
20110104 2225;10;8;9
20110104 2230;10;8;9
20110104 2235;10;8;9
20110104 2240;10;8;9
20110104 2245;10;8;9
20110104 2250;10;8;9
20110104 2255;10;8;9
20110104 2300;10;8;9
20110104 2305;10;8;9
20110104 2310;10;8;9
20110104 2315;10;8;9
20110104 2320;10;8;9
20110104 2325;10;8;9
20110104 2330;10;8;9
20110104 2335;10;8;9
20110104 2340;10;8;9
20110104 2345;10;8;9
20110104 2350;10;8;9
20110104 2355;10;8;9
20110105 0000;10;8;9
20110105 0005;10;8;9
20110105 0010;10;8;9
20110105 0015;10;8;9
20110105 0020;10;8;9
20110105 0025;10;8;9
20110105 0030;10;8;9
20110105 0035;10;8;9
20110105 0040;10;8;9
20110105 0045;10;8;9
20110105 0050;10;8;9
20110105 0055;10;8;9
20110105 0100;10;8;9
20110105 0105;10;8;9
20110105 0110;10;8;9
20110105 0115;10;8;9
20110105 0120;10;8;9
20110105 0125;10;8;9
20110105 0130;10;8;9
20110105 0135;10;8;9
20110105 0140;10;8;9
20110105 0145;10;8;9
20110105 0150;10;8;9
20110105 0155;10;8;9
20110105 0200;10;8;9
20110105 0205;10;8;9
20110105 0210;10;8;9
20110105 0215;10;8;9
20110105 0220;10;8;9
20110105 0225;10;8;9
20110105 0230;10;8;9
20110105 0235;10;8;9
20110105 0240;10;8;9
20110105 0245;10;8;9
20110105 0250;10;8;9
20110105 0255;10;8;9
20110105 0300;10;8;9
20110105 0305;10;8;9
20110105 0310;10;8;9
20110105 0315;10;8;9
20110105 0320;10;8;9
20110105 0325;10;8;9
20110105 0330;10;8;9
20110105 0335;10;8;9
20110105 0340;10;8;9
20110105 0345;10;8;9
20110105 0350;10;8;9
20110105 0355;10;8;9
20110105 0400;10;8;9
20110105 0405;10;8;9
20110105 0410;10;8;9
20110105 0415;10;8;9
20110105 0420;10;8;9
20110105 0425;10;8;9
20110105 0430;10;8;9
20110105 0435;10;8;9
20110105 0440;10;8;9
20110105 0445;10;8;9
20110105 0450;10;8;9
20110105 0455;10;8;9
20110105 0500;10;8;9
20110105 0505;10;8;9
20110105 0510;10;8;9
20110105 0515;10;8;9
20110105 0520;10;8;9
20110105 0525;10;8;9
20110105 0530;10;8;9
20110105 0535;10;8;9
20110105 0540;10;8;9
20110105 0545;10;8;9
20110105 0550;10;8;9
20110105 0555;10;8;9
20110105 0600;10;8;9
20110105 0605;10;8;9
20110105 0610;10;8;9
20110105 0615;10;8;9
20110105 0620;10;8;9
20110105 0625;10;8;9
20110105 0630;10;8;9
20110105 0635;10;8;9
20110105 0640;10;8;9
20110105 0645;10;8;9
20110105 0650;10;8;9
20110105 0655;10;8;9
20110105 0700;10;8;9
20110105 0705;10;8;9
20110105 0710;10;8;9
20110105 0715;10;8;9
20110105 0720;10;8;9
20110105 0725;10;8;9
20110105 0730;10;8;9
20110105 0735;10;8;9
20110105 0740;10;8;9
20110105 0745;10;8;9
20110105 0750;10;8;9
20110105 0755;10;8;9
20110105 0800;10;8;9
20110105 0805;10;8;9
20110105 0810;10;8;9
20110105 0815;10;8;9
20110105 0820;10;8;9
20110105 0825;10;8;9
20110105 0830;10;8;9
20110105 0835;10;8;9
20110105 0840;10;8;9
20110105 0845;10;8;9
20110105 0850;10;8;9
20110105 0855;10;8;9
20110105 0900;10;8;9
20110105 0905;10;8;9
20110105 0910;10;8;9
20110105 0915;10;8;9
20110105 0920;10;8;9
20110105 0925;10;8;9
20110105 0930;10;8;9
20110105 0935;10;8;9
20110105 0940;10;8;9
20110105 0945;10;8;9
20110105 0950;10;8;9
20110105 0955;10;8;9
20110105 1000;10;8;9
20110105 1005;10;8;9
20110105 1010;10;8;9
20110105 1015;10;8;9
20110105 1020;10;8;9
20110105 1025;10;8;9
20110105 1030;10;8;9
20110105 1035;10;8;9
20110105 1040;10;8;9
20110105 1045;10;8;9
20110105 1050;10;8;9
20110105 1055;10;8;9
20110105 1100;10;8;9
20110105 1105;10;8;9
20110105 1110;10;8;9
20110105 1115;10;8;9
20110105 1120;10;8;9
20110105 1125;10;8;9
20110105 1130;10;8;9
20110105 1135;10;8;9
20110105 1140;10;8;9
20110105 1145;10;8;9
20110105 1150;10;8;9
20110105 1155;10;8;9
20110105 1200;10;8;9
20110105 1205;10;8;9
20110105 1210;10;8;9
20110105 1215;10;8;9
20110105 1220;10;8;9
20110105 1225;10;8;9
20110105 1230;10;8;9
20110105 1235;10;8;9
20110105 1240;10;8;9
20110105 1245;10;8;9
20110105 1250;10;8;9
20110105 1255;10;8;9
20110105 1300;10;8;9
20110105 1305;10;8;9
20110105 1310;10;8;9
20110105 1315;10;8;9
20110105 1320;10;8;9
20110105 1325;10;8;9
20110105 1330;10;8;9
20110105 1335;10;8;9
20110105 1340;10;8;9
20110105 1345;10;8;9
20110105 1350;10;8;9
20110105 1355;10;8;9
20110105 1400;10;8;9
20110105 1405;10;8;9
20110105 1410;10;8;9
20110105 1415;10;8;9
20110105 1420;10;8;9
20110105 1425;10;8;9
20110105 1430;10;8;9
20110105 1435;10;8;9
20110105 1440;10;8;9
20110105 1445;10;8;9
20110105 1450;10;8;9
20110105 1455;10;8;9
20110105 1500;10;8;9
20110105 1505;10;8;9
20110105 1510;10;8;9
20110105 1515;10;8;9
20110105 1520;10;8;9
20110105 1525;10;8;9
20110105 1530;10;8;9
20110105 1535;10;8;9
20110105 1540;10;8;9
20110105 1545;10;8;9
20110105 1550;10;8;9
20110105 1555;10;8;9
20110105 1600;10;8;9
20110105 1605;10;8;9
20110105 1610;10;8;9
20110105 1615;10;8;9
20110105 1620;10;8;9
20110105 1625;10;8;9
20110105 1630;10;8;9
20110105 1635;10;8;9
20110105 1640;10;8;9
20110105 1645;10;8;9
20110105 1650;10;8;9
20110105 1655;10;8;9
20110105 1700;10;8;9
20110105 1705;10;8;9
20110105 1710;10;8;9
20110105 1715;10;8;9
20110105 1720;10;8;9
20110105 1725;10;8;9
20110105 1730;10;8;9
20110105 1735;10;8;9
20110105 1740;10;8;9
20110105 1745;10;8;9
20110105 1750;10;8;9
20110105 1755;10;8;9
20110105 1800;10;8;9
20110105 1805;10;8;9
20110105 1810;10;8;9
20110105 1815;10;8;9
20110105 1820;10;8;9
20110105 1825;10;8;9
20110105 1830;10;8;9
20110105 1835;10;8;9
20110105 1840;10;8;9
20110105 1845;10;8;9
20110105 1850;10;8;9
20110105 1855;10;8;9
20110105 1900;10;8;9
20110105 1905;10;8;9
20110105 1910;10;8;9
20110105 1915;10;8;9
20110105 1920;10;8;9
20110105 1925;10;8;9
20110105 1930;10;8;9
20110105 1935;10;8;9
20110105 1940;10;8;9
20110105 1945;10;8;9
20110105 1950;10;8;9
20110105 1955;10;8;9
20110105 2000;10;8;9
20110105 2005;10;8;9
20110105 2010;10;8;9
20110105 2015;10;8;9
20110105 2020;10;8;9
20110105 2025;10;8;9
20110105 2030;10;8;9
20110105 2035;10;8;9
20110105 2040;10;8;9
20110105 2045;10;8;9
20110105 2050;10;8;9
20110105 2055;10;8;9
20110105 2100;10;8;9
20110105 2105;10;8;9
20110105 2110;10;8;9
20110105 2115;10;8;9
20110105 2120;10;8;9
20110105 2125;10;8;9
20110105 2130;10;8;9
20110105 2135;10;8;9
20110105 2140;10;8;9
20110105 2145;10;8;9
20110105 2150;10;8;9
20110105 2155;10;8;9
20110105 2200;10;8;9
20110105 2205;10;8;9
20110105 2210;10;8;9
20110105 2215;10;8;9
20110105 2220;10;8;9
20110105 2225;10;8;9
20110105 2230;10;8;9
20110105 2235;10;8;9
20110105 2240;10;8;9
20110105 2245;10;8;9
20110105 2250;10;8;9
20110105 2255;10;8;9
20110105 2300;10;8;9
20110105 2305;10;8;9
20110105 2310;10;8;9
20110105 2315;10;8;9
20110105 2320;10;8;9
20110105 2325;10;8;9
20110105 2330;10;8;9
20110105 2335;10;8;9
20110105 2340;10;8;9
20110105 2345;10;8;9
20110105 2350;10;8;9
20110105 2355;10;8;9
20110106 0000;10;8;9
20110106 0005;10;8;9
20110106 0010;10;8;9
20110106 0015;10;8;9
20110106 0020;10;8;9
20110106 0025;10;8;9
20110106 0030;10;8;9
20110106 0035;10;8;9
20110106 0040;10;8;9
20110106 0045;10;8;9
20110106 0050;10;8;9
20110106 0055;10;8;9
20110106 0100;10;8;9
20110106 0105;10;8;9
20110106 0110;10;8;9
20110106 0115;10;8;9
20110106 0120;10;8;9
20110106 0125;10;8;9
20110106 0130;10;8;9
20110106 0135;10;8;9
20110106 0140;10;8;9
20110106 0145;10;8;9
20110106 0150;10;8;9
20110106 0155;10;8;9
20110106 0200;10;8;9
20110106 0205;10;8;9
20110106 0210;10;8;9
20110106 0215;10;8;9
20110106 0220;10;8;9
20110106 0225;10;8;9
20110106 0230;10;8;9
20110106 0235;10;8;9
20110106 0240;10;8;9
20110106 0245;10;8;9
20110106 0250;10;8;9
20110106 0255;10;8;9
20110106 0300;10;8;9
20110106 0305;10;8;9
20110106 0310;10;8;9
20110106 0315;10;8;9
20110106 0320;10;8;9
20110106 0325;10;8;9
20110106 0330;10;8;9
20110106 0335;10;8;9
20110106 0340;10;8;9
20110106 0345;10;8;9
20110106 0350;10;8;9
20110106 0355;10;8;9
20110106 0400;10;8;9
20110106 0405;10;8;9
20110106 0410;10;8;9
20110106 0415;10;8;9
20110106 0420;10;8;9
20110106 0425;10;8;9
20110106 0430;10;8;9
20110106 0435;10;8;9
20110106 0440;10;8;9
20110106 0445;10;8;9
20110106 0450;10;8;9
20110106 0455;10;8;9
20110106 0500;10;8;9
20110106 0505;10;8;9
20110106 0510;10;8;9
20110106 0515;10;8;9
20110106 0520;10;8;9
20110106 0525;10;8;9
20110106 0530;10;8;9
20110106 0535;10;8;9
20110106 0540;10;8;9
20110106 0545;10;8;9
20110106 0550;10;8;9
20110106 0555;10;8;9
20110106 0600;10;8;9
20110106 0605;10;8;9
20110106 0610;10;8;9
20110106 0615;10;8;9
20110106 0620;10;8;9
20110106 0625;10;8;9
20110106 0630;10;8;9
20110106 0635;10;8;9
20110106 0640;10;8;9
20110106 0645;10;8;9
20110106 0650;10;8;9
20110106 0655;10;8;9
20110106 0700;10;8;9
20110106 0705;10;8;9
20110106 0710;10;8;9
20110106 0715;10;8;9
20110106 0720;10;8;9
20110106 0725;10;8;9
20110106 0730;10;8;9
20110106 0735;10;8;9
20110106 0740;10;8;9
20110106 0745;10;8;9
20110106 0750;10;8;9
20110106 0755;10;8;9
20110106 0800;10;8;9
20110106 0805;10;8;9
20110106 0810;10;8;9
20110106 0815;10;8;9
20110106 0820;10;8;9
20110106 0825;10;8;9
20110106 0830;10;8;9
20110106 0835;10;8;9
20110106 0840;10;8;9
20110106 0845;10;8;9
20110106 0850;10;8;9
20110106 0855;10;8;9
20110106 0900;10;8;9
20110106 0905;10;8;9
20110106 0910;10;8;9
20110106 0915;10;8;9
20110106 0920;10;8;9
20110106 0925;10;8;9
20110106 0930;10;8;9
20110106 0935;10;8;9
20110106 0940;10;8;9
20110106 0945;10;8;9
20110106 0950;10;8;9
20110106 0955;10;8;9
20110106 1000;10;8;9
20110106 1005;10;8;9
20110106 1010;10;8;9
20110106 1015;10;8;9
20110106 1020;10;8;9
20110106 1025;10;8;9
20110106 1030;10;8;9
20110106 1035;10;8;9
20110106 1040;10;8;9
20110106 1045;10;8;9
20110106 1050;10;8;9
20110106 1055;10;8;9
20110106 1100;10;8;9
20110106 1105;10;8;9
20110106 1110;10;8;9
20110106 1115;10;8;9
20110106 1120;10;8;9
20110106 1125;10;8;9
20110106 1130;10;8;9
20110106 1135;10;8;9
20110106 1140;10;8;9
20110106 1145;10;8;9
20110106 1150;10;8;9
20110106 1155;10;8;9
20110106 1200;10;8;9
20110106 1205;10;8;9
20110106 1210;10;8;9
20110106 1215;10;8;9
20110106 1220;10;8;9
20110106 1225;10;8;9
20110106 1230;10;8;9
20110106 1235;10;8;9
20110106 1240;10;8;9
20110106 1245;10;8;9
20110106 1250;10;8;9
20110106 1255;10;8;9
20110106 1300;10;8;9
20110106 1305;10;8;9
20110106 1310;10;8;9
20110106 1315;10;8;9
20110106 1320;10;8;9
20110106 1325;10;8;9
20110106 1330;10;8;9
20110106 1335;10;8;9
20110106 1340;10;8;9
20110106 1345;10;8;9
20110106 1350;10;8;9
20110106 1355;10;8;9
20110106 1400;10;8;9
20110106 1405;10;8;9
20110106 1410;10;8;9
20110106 1415;10;8;9
20110106 1420;10;8;9
20110106 1425;10;8;9
20110106 1430;10;8;9
20110106 1435;10;8;9
20110106 1440;10;8;9
20110106 1445;10;8;9
20110106 1450;10;8;9
20110106 1455;10;8;9
20110106 1500;10;8;9
20110106 1505;10;8;9
20110106 1510;10;8;9
20110106 1515;10;8;9
20110106 1520;10;8;9
20110106 1525;10;8;9
20110106 1530;10;8;9
20110106 1535;10;8;9
20110106 1540;10;8;9
20110106 1545;10;8;9
20110106 1550;10;8;9
20110106 1555;10;8;9
20110106 1600;10;8;9
20110106 1605;10;8;9
20110106 1610;10;8;9
20110106 1615;10;8;9
20110106 1620;10;8;9
20110106 1625;10;8;9
20110106 1630;10;8;9
20110106 1635;10;8;9
20110106 1640;10;8;9
20110106 1645;10;8;9
20110106 1650;10;8;9
20110106 1655;10;8;9
20110106 1700;10;8;9
20110106 1705;10;8;9
20110106 1710;10;8;9
20110106 1715;10;8;9
20110106 1720;10;8;9
20110106 1725;10;8;9
20110106 1730;10;8;9
20110106 1735;10;8;9
20110106 1740;10;8;9
20110106 1745;10;8;9
20110106 1750;10;8;9
20110106 1755;10;8;9
20110106 1800;10;8;9
20110106 1805;10;8;9
20110106 1810;10;8;9
20110106 1815;10;8;9
20110106 1820;10;8;9
20110106 1825;10;8;9
20110106 1830;10;8;9
20110106 1835;10;8;9
20110106 1840;10;8;9
20110106 1845;10;8;9
20110106 1850;10;8;9
20110106 1855;10;8;9
20110106 1900;10;8;9
20110106 1905;10;8;9
20110106 1910;10;8;9
20110106 1915;10;8;9
20110106 1920;10;8;9
20110106 1925;10;8;9
20110106 1930;10;8;9
20110106 1935;10;8;9
20110106 1940;10;8;9
20110106 1945;10;8;9
20110106 1950;10;8;9
20110106 1955;10;8;9
20110106 2000;10;8;9
20110106 2005;10;8;9
20110106 2010;10;8;9
20110106 2015;10;8;9
20110106 2020;10;8;9
20110106 2025;10;8;9
20110106 2030;10;8;9
20110106 2035;10;8;9
20110106 2040;10;8;9
20110106 2045;10;8;9
20110106 2050;10;8;9
20110106 2055;10;8;9
20110106 2100;10;8;9
20110106 2105;10;8;9
20110106 2110;10;8;9
20110106 2115;10;8;9
20110106 2120;10;8;9
20110106 2125;10;8;9
20110106 2130;10;8;9
20110106 2135;10;8;9
20110106 2140;10;8;9
20110106 2145;10;8;9
20110106 2150;10;8;9
20110106 2155;10;8;9
20110106 2200;10;8;9
20110106 2205;10;8;9
20110106 2210;10;8;9
20110106 2215;10;8;9
20110106 2220;10;8;9
20110106 2225;10;8;9
20110106 2230;10;8;9
20110106 2235;10;8;9
20110106 2240;10;8;9
20110106 2245;10;8;9
20110106 2250;10;8;9
20110106 2255;10;8;9
20110106 2300;10;8;9
20110106 2305;10;8;9
20110106 2310;10;8;9
20110106 2315;10;8;9
20110106 2320;10;8;9
20110106 2325;10;8;9
20110106 2330;10;8;9
20110106 2335;10;8;9
20110106 2340;10;8;9
20110106 2345;10;8;9
20110106 2350;10;8;9
20110106 2355;10;8;9
20110107 0000;10;8;9
20110107 0005;10;8;9
20110107 0010;10;8;9
20110107 0015;10;8;9
20110107 0020;10;8;9
20110107 0025;10;8;9
20110107 0030;10;8;9
20110107 0035;10;8;9
20110107 0040;10;8;9
20110107 0045;10;8;9
20110107 0050;10;8;9
20110107 0055;10;8;9
20110107 0100;10;8;9
20110107 0105;10;8;9
20110107 0110;10;8;9
20110107 0115;10;8;9
20110107 0120;10;8;9
20110107 0125;10;8;9
20110107 0130;10;8;9
20110107 0135;10;8;9
20110107 0140;10;8;9
20110107 0145;10;8;9
20110107 0150;10;8;9
20110107 0155;10;8;9
20110107 0200;10;8;9
20110107 0205;10;8;9
20110107 0210;10;8;9
20110107 0215;10;8;9
20110107 0220;10;8;9
20110107 0225;10;8;9
20110107 0230;10;8;9
20110107 0235;10;8;9
20110107 0240;10;8;9
20110107 0245;10;8;9
20110107 0250;10;8;9
20110107 0255;10;8;9
20110107 0300;10;8;9
20110107 0305;10;8;9
20110107 0310;10;8;9
20110107 0315;10;8;9
20110107 0320;10;8;9
20110107 0325;10;8;9
20110107 0330;10;8;9
20110107 0335;10;8;9
20110107 0340;10;8;9
20110107 0345;10;8;9
20110107 0350;10;8;9
20110107 0355;10;8;9
20110107 0400;10;8;9
20110107 0405;10;8;9
20110107 0410;10;8;9
20110107 0415;10;8;9
20110107 0420;10;8;9
20110107 0425;10;8;9
20110107 0430;10;8;9
20110107 0435;10;8;9
20110107 0440;10;8;9
20110107 0445;10;8;9
20110107 0450;10;8;9
20110107 0455;10;8;9
20110107 0500;10;8;9
20110107 0505;10;8;9
20110107 0510;10;8;9
20110107 0515;10;8;9
20110107 0520;10;8;9
20110107 0525;10;8;9
20110107 0530;10;8;9
20110107 0535;10;8;9
20110107 0540;10;8;9
20110107 0545;10;8;9
20110107 0550;10;8;9
20110107 0555;10;8;9
20110107 0600;10;8;9
20110107 0605;10;8;9
20110107 0610;10;8;9
20110107 0615;10;8;9
20110107 0620;10;8;9
20110107 0625;10;8;9
20110107 0630;10;8;9
20110107 0635;10;8;9
20110107 0640;10;8;9
20110107 0645;10;8;9
20110107 0650;10;8;9
20110107 0655;10;8;9
20110107 0700;10;8;9
20110107 0705;10;8;9
20110107 0710;10;8;9
20110107 0715;10;8;9
20110107 0720;10;8;9
20110107 0725;10;8;9
20110107 0730;10;8;9
20110107 0735;10;8;9
20110107 0740;10;8;9
20110107 0745;10;8;9
20110107 0750;10;8;9
20110107 0755;10;8;9
20110107 0800;10;8;9
20110107 0805;10;8;9
20110107 0810;10;8;9
20110107 0815;10;8;9
20110107 0820;10;8;9
20110107 0825;10;8;9
20110107 0830;10;8;9
20110107 0835;10;8;9
20110107 0840;10;8;9
20110107 0845;10;8;9
20110107 0850;10;8;9
20110107 0855;10;8;9
20110107 0900;10;8;9
20110107 0905;10;8;9
20110107 0910;10;8;9
20110107 0915;10;8;9
20110107 0920;10;8;9
20110107 0925;10;8;9
20110107 0930;10;8;9
20110107 0935;10;8;9
20110107 0940;10;8;9
20110107 0945;10;8;9
20110107 0950;10;8;9
20110107 0955;10;8;9
20110107 1000;10;8;9
20110107 1005;10;8;9
20110107 1010;10;8;9
20110107 1015;10;8;9
20110107 1020;10;8;9
20110107 1025;10;8;9
20110107 1030;10;8;9
20110107 1035;10;8;9
20110107 1040;10;8;9
20110107 1045;10;8;9
20110107 1050;10;8;9
20110107 1055;10;8;9
20110107 1100;10;8;9
20110107 1105;10;8;9
20110107 1110;10;8;9
20110107 1115;10;8;9
20110107 1120;10;8;9
20110107 1125;10;8;9
20110107 1130;10;8;9
20110107 1135;10;8;9
20110107 1140;10;8;9
20110107 1145;10;8;9
20110107 1150;10;8;9
20110107 1155;10;8;9
20110107 1200;10;8;9
20110107 1205;10;8;9
20110107 1210;10;8;9
20110107 1215;10;8;9
20110107 1220;10;8;9
20110107 1225;10;8;9
20110107 1230;10;8;9
20110107 1235;10;8;9
20110107 1240;10;8;9
20110107 1245;10;8;9
20110107 1250;10;8;9
20110107 1255;10;8;9
20110107 1300;10;8;9
20110107 1305;10;8;9
20110107 1310;10;8;9
20110107 1315;10;8;9
20110107 1320;10;8;9
20110107 1325;10;8;9
20110107 1330;10;8;9
20110107 1335;10;8;9
20110107 1340;10;8;9
20110107 1345;10;8;9
20110107 1350;10;8;9
20110107 1355;10;8;9
20110107 1400;10;8;9
20110107 1405;10;8;9
20110107 1410;10;8;9
20110107 1415;10;8;9
20110107 1420;10;8;9
20110107 1425;10;8;9
20110107 1430;10;8;9
20110107 1435;10;8;9
20110107 1440;10;8;9
20110107 1445;10;8;9
20110107 1450;10;8;9
20110107 1455;10;8;9
20110107 1500;10;8;9
20110107 1505;10;8;9
20110107 1510;10;8;9
20110107 1515;10;8;9
20110107 1520;10;8;9
20110107 1525;10;8;9
20110107 1530;10;8;9
20110107 1535;10;8;9
20110107 1540;10;8;9
20110107 1545;10;8;9
20110107 1550;10;8;9
20110107 1555;10;8;9
20110107 1600;10;8;9
20110107 1605;10;8;9
20110107 1610;10;8;9
20110107 1615;10;8;9
20110107 1620;10;8;9
20110107 1625;10;8;9
20110107 1630;10;8;9
20110107 1635;10;8;9
20110107 1640;10;8;9
20110107 1645;10;8;9
20110107 1650;10;8;9
20110107 1655;10;8;9
20110107 1700;10;8;9
20110107 1705;10;8;9
20110107 1710;10;8;9
20110107 1715;10;8;9
20110107 1720;10;8;9
20110107 1725;10;8;9
20110107 1730;10;8;9
20110107 1735;10;8;9
20110107 1740;10;8;9
20110107 1745;10;8;9
20110107 1750;10;8;9
20110107 1755;10;8;9
20110107 1800;10;8;9
20110107 1805;10;8;9
20110107 1810;10;8;9
20110107 1815;10;8;9
20110107 1820;10;8;9
20110107 1825;10;8;9
20110107 1830;10;8;9
20110107 1835;10;8;9
20110107 1840;10;8;9
20110107 1845;10;8;9
20110107 1850;10;8;9
20110107 1855;10;8;9
20110107 1900;10;8;9
20110107 1905;10;8;9
20110107 1910;10;8;9
20110107 1915;10;8;9
20110107 1920;10;8;9
20110107 1925;10;8;9
20110107 1930;10;8;9
20110107 1935;10;8;9
20110107 1940;10;8;9
20110107 1945;10;8;9
20110107 1950;10;8;9
20110107 1955;10;8;9
20110107 2000;10;8;9
20110107 2005;10;8;9
20110107 2010;10;8;9
20110107 2015;10;8;9
20110107 2020;10;8;9
20110107 2025;10;8;9
20110107 2030;10;8;9
20110107 2035;10;8;9
20110107 2040;10;8;9
20110107 2045;10;8;9
20110107 2050;10;8;9
20110107 2055;10;8;9
20110107 2100;10;8;9
20110107 2105;10;8;9
20110107 2110;10;8;9
20110107 2115;10;8;9
20110107 2120;10;8;9
20110107 2125;10;8;9
20110107 2130;10;8;9
20110107 2135;10;8;9
20110107 2140;10;8;9
20110107 2145;10;8;9
20110107 2150;10;8;9
20110107 2155;10;8;9
20110107 2200;10;8;9
20110107 2205;10;8;9
20110107 2210;10;8;9
20110107 2215;10;8;9
20110107 2220;10;8;9
20110107 2225;10;8;9
20110107 2230;10;8;9
20110107 2235;10;8;9
20110107 2240;10;8;9
20110107 2245;10;8;9
20110107 2250;10;8;9
20110107 2255;10;8;9
20110107 2300;10;8;9
20110107 2305;10;8;9
20110107 2310;10;8;9
20110107 2315;10;8;9
20110107 2320;10;8;9
20110107 2325;10;8;9
20110107 2330;10;8;9
20110107 2335;10;8;9
20110107 2340;10;8;9
20110107 2345;10;8;9
20110107 2350;10;8;9
20110107 2355;10;8;9
20110108 0000;10;8;9
20110108 0005;10;8;9
20110108 0010;10;8;9
20110108 0015;10;8;9
20110108 0020;10;8;9
20110108 0025;10;8;9
20110108 0030;10;8;9
20110108 0035;10;8;9
20110108 0040;10;8;9
20110108 0045;10;8;9
20110108 0050;10;8;9
20110108 0055;10;8;9
20110108 0100;10;8;9
20110108 0105;10;8;9
20110108 0110;10;8;9
20110108 0115;10;8;9
20110108 0120;10;8;9
20110108 0125;10;8;9
20110108 0130;10;8;9
20110108 0135;10;8;9
20110108 0140;10;8;9
20110108 0145;10;8;9
20110108 0150;10;8;9
20110108 0155;10;8;9
20110108 0200;10;8;9
20110108 0205;10;8;9
20110108 0210;10;8;9
20110108 0215;10;8;9
20110108 0220;10;8;9
20110108 0225;10;8;9
20110108 0230;10;8;9
20110108 0235;10;8;9
20110108 0240;10;8;9
20110108 0245;10;8;9
20110108 0250;10;8;9
20110108 0255;10;8;9
20110108 0300;10;8;9
20110108 0305;10;8;9
20110108 0310;10;8;9
20110108 0315;10;8;9
20110108 0320;10;8;9
20110108 0325;10;8;9
20110108 0330;10;8;9
20110108 0335;10;8;9
20110108 0340;10;8;9
20110108 0345;10;8;9
20110108 0350;10;8;9
20110108 0355;10;8;9
20110108 0400;10;8;9
20110108 0405;10;8;9
20110108 0410;10;8;9
20110108 0415;10;8;9
20110108 0420;10;8;9
20110108 0425;10;8;9
20110108 0430;10;8;9
20110108 0435;10;8;9
20110108 0440;10;8;9
20110108 0445;10;8;9
20110108 0450;10;8;9
20110108 0455;10;8;9
20110108 0500;10;8;9
20110108 0505;10;8;9
20110108 0510;10;8;9
20110108 0515;10;8;9
20110108 0520;10;8;9
20110108 0525;10;8;9
20110108 0530;10;8;9
20110108 0535;10;8;9
20110108 0540;10;8;9
20110108 0545;10;8;9
20110108 0550;10;8;9
20110108 0555;10;8;9
20110108 0600;10;8;9
20110108 0605;10;8;9
20110108 0610;10;8;9
20110108 0615;10;8;9
20110108 0620;10;8;9
20110108 0625;10;8;9
20110108 0630;10;8;9
20110108 0635;10;8;9
20110108 0640;10;8;9
20110108 0645;10;8;9
20110108 0650;10;8;9
20110108 0655;10;8;9
20110108 0700;10;8;9
20110108 0705;10;8;9
20110108 0710;10;8;9
20110108 0715;10;8;9
20110108 0720;10;8;9
20110108 0725;10;8;9
20110108 0730;10;8;9
20110108 0735;10;8;9
20110108 0740;10;8;9
20110108 0745;10;8;9
20110108 0750;10;8;9
20110108 0755;10;8;9
20110108 0800;10;8;9
20110108 0805;10;8;9
20110108 0810;10;8;9
20110108 0815;10;8;9
20110108 0820;10;8;9
20110108 0825;10;8;9
20110108 0830;10;8;9
20110108 0835;10;8;9
20110108 0840;10;8;9
20110108 0845;10;8;9
20110108 0850;10;8;9
20110108 0855;10;8;9
20110108 0900;10;8;9
20110108 0905;10;8;9
20110108 0910;10;8;9
20110108 0915;10;8;9
20110108 0920;10;8;9
20110108 0925;10;8;9
20110108 0930;10;8;9
20110108 0935;10;8;9
20110108 0940;10;8;9
20110108 0945;10;8;9
20110108 0950;10;8;9
20110108 0955;10;8;9
20110108 1000;10;8;9
20110108 1005;10;8;9
20110108 1010;10;8;9
20110108 1015;10;8;9
20110108 1020;10;8;9
20110108 1025;10;8;9
20110108 1030;10;8;9
20110108 1035;10;8;9
20110108 1040;10;8;9
20110108 1045;10;8;9
20110108 1050;10;8;9
20110108 1055;10;8;9
20110108 1100;10;8;9
20110108 1105;10;8;9
20110108 1110;10;8;9
20110108 1115;10;8;9
20110108 1120;10;8;9
20110108 1125;10;8;9
20110108 1130;10;8;9
20110108 1135;10;8;9
20110108 1140;10;8;9
20110108 1145;10;8;9
20110108 1150;10;8;9
20110108 1155;10;8;9
20110108 1200;10;8;9
20110108 1205;10;8;9
20110108 1210;10;8;9
20110108 1215;10;8;9
20110108 1220;10;8;9
20110108 1225;10;8;9
20110108 1230;10;8;9
20110108 1235;10;8;9
20110108 1240;10;8;9
20110108 1245;10;8;9
20110108 1250;10;8;9
20110108 1255;10;8;9
20110108 1300;10;8;9
20110108 1305;10;8;9
20110108 1310;10;8;9
20110108 1315;10;8;9
20110108 1320;10;8;9
20110108 1325;10;8;9
20110108 1330;10;8;9
20110108 1335;10;8;9
20110108 1340;10;8;9
20110108 1345;10;8;9
20110108 1350;10;8;9
20110108 1355;10;8;9
20110108 1400;10;8;9
20110108 1405;10;8;9
20110108 1410;10;8;9
20110108 1415;10;8;9
20110108 1420;10;8;9
20110108 1425;10;8;9
20110108 1430;10;8;9
20110108 1435;10;8;9
20110108 1440;10;8;9
20110108 1445;10;8;9
20110108 1450;10;8;9
20110108 1455;10;8;9
20110108 1500;10;8;9
20110108 1505;10;8;9
20110108 1510;10;8;9
20110108 1515;10;8;9
20110108 1520;10;8;9
20110108 1525;10;8;9
20110108 1530;10;8;9
20110108 1535;10;8;9
20110108 1540;10;8;9
20110108 1545;10;8;9
20110108 1550;10;8;9
20110108 1555;10;8;9
20110108 1600;10;8;9
20110108 1605;10;8;9
20110108 1610;10;8;9
20110108 1615;10;8;9
20110108 1620;10;8;9
20110108 1625;10;8;9
20110108 1630;10;8;9
20110108 1635;10;8;9
20110108 1640;10;8;9
20110108 1645;10;8;9
20110108 1650;10;8;9
20110108 1655;10;8;9
20110108 1700;10;8;9
20110108 1705;10;8;9
20110108 1710;10;8;9
20110108 1715;10;8;9
20110108 1720;10;8;9
20110108 1725;10;8;9
20110108 1730;10;8;9
20110108 1735;10;8;9
20110108 1740;10;8;9
20110108 1745;10;8;9
20110108 1750;10;8;9
20110108 1755;10;8;9
20110108 1800;10;8;9
20110108 1805;10;8;9
20110108 1810;10;8;9
20110108 1815;10;8;9
20110108 1820;10;8;9
20110108 1825;10;8;9
20110108 1830;10;8;9
20110108 1835;10;8;9
20110108 1840;10;8;9
20110108 1845;10;8;9
20110108 1850;10;8;9
20110108 1855;10;8;9
20110108 1900;10;8;9
20110108 1905;10;8;9
20110108 1910;10;8;9
20110108 1915;10;8;9
20110108 1920;10;8;9
20110108 1925;10;8;9
20110108 1930;10;8;9
20110108 1935;10;8;9
20110108 1940;10;8;9
20110108 1945;10;8;9
20110108 1950;10;8;9
20110108 1955;10;8;9
20110108 2000;10;8;9
20110108 2005;10;8;9
20110108 2010;10;8;9
20110108 2015;10;8;9
20110108 2020;10;8;9
20110108 2025;10;8;9
20110108 2030;10;8;9
20110108 2035;10;8;9
20110108 2040;10;8;9
20110108 2045;10;8;9
20110108 2050;10;8;9
20110108 2055;10;8;9
20110108 2100;10;8;9
20110108 2105;10;8;9
20110108 2110;10;8;9
20110108 2115;10;8;9
20110108 2120;10;8;9
20110108 2125;10;8;9
20110108 2130;10;8;9
20110108 2135;10;8;9
20110108 2140;10;8;9
20110108 2145;10;8;9
20110108 2150;10;8;9
20110108 2155;10;8;9
20110108 2200;10;8;9
20110108 2205;10;8;9
20110108 2210;10;8;9
20110108 2215;10;8;9
20110108 2220;10;8;9
20110108 2225;10;8;9
20110108 2230;10;8;9
20110108 2235;10;8;9
20110108 2240;10;8;9
20110108 2245;10;8;9
20110108 2250;10;8;9
20110108 2255;10;8;9
20110108 2300;10;8;9
20110108 2305;10;8;9
20110108 2310;10;8;9
20110108 2315;10;8;9
20110108 2320;10;8;9
20110108 2325;10;8;9
20110108 2330;10;8;9
20110108 2335;10;8;9
20110108 2340;10;8;9
20110108 2345;10;8;9
20110108 2350;10;8;9
20110108 2355;10;8;9
20110109 0000;10;8;9
20110109 0005;10;8;9
20110109 0010;10;8;9
20110109 0015;10;8;9
20110109 0020;10;8;9
20110109 0025;10;8;9
20110109 0030;10;8;9
20110109 0035;10;8;9
20110109 0040;10;8;9
20110109 0045;10;8;9
20110109 0050;10;8;9
20110109 0055;10;8;9
20110109 0100;10;8;9
20110109 0105;10;8;9
20110109 0110;10;8;9
20110109 0115;10;8;9
20110109 0120;10;8;9
20110109 0125;10;8;9
20110109 0130;10;8;9
20110109 0135;10;8;9
20110109 0140;10;8;9
20110109 0145;10;8;9
20110109 0150;10;8;9
20110109 0155;10;8;9
20110109 0200;10;8;9
20110109 0205;10;8;9
20110109 0210;10;8;9
20110109 0215;10;8;9
20110109 0220;10;8;9
20110109 0225;10;8;9
20110109 0230;10;8;9
20110109 0235;10;8;9
20110109 0240;10;8;9
20110109 0245;10;8;9
20110109 0250;10;8;9
20110109 0255;10;8;9
20110109 0300;10;8;9
20110109 0305;10;8;9
20110109 0310;10;8;9
20110109 0315;10;8;9
20110109 0320;10;8;9
20110109 0325;10;8;9
20110109 0330;10;8;9
20110109 0335;10;8;9
20110109 0340;10;8;9
20110109 0345;10;8;9
20110109 0350;10;8;9
20110109 0355;10;8;9
20110109 0400;10;8;9
20110109 0405;10;8;9
20110109 0410;10;8;9
20110109 0415;10;8;9
20110109 0420;10;8;9
20110109 0425;10;8;9
20110109 0430;10;8;9
20110109 0435;10;8;9
20110109 0440;10;8;9
20110109 0445;10;8;9
20110109 0450;10;8;9
20110109 0455;10;8;9
20110109 0500;10;8;9
20110109 0505;10;8;9
20110109 0510;10;8;9
20110109 0515;10;8;9
20110109 0520;10;8;9
20110109 0525;10;8;9
20110109 0530;10;8;9
20110109 0535;10;8;9
20110109 0540;10;8;9
20110109 0545;10;8;9
20110109 0550;10;8;9
20110109 0555;10;8;9
20110109 0600;10;8;9
20110109 0605;10;8;9
20110109 0610;10;8;9
20110109 0615;10;8;9
20110109 0620;10;8;9
20110109 0625;10;8;9
20110109 0630;10;8;9
20110109 0635;10;8;9
20110109 0640;10;8;9
20110109 0645;10;8;9
20110109 0650;10;8;9
20110109 0655;10;8;9
20110109 0700;10;8;9
20110109 0705;10;8;9
20110109 0710;10;8;9
20110109 0715;10;8;9
20110109 0720;10;8;9
20110109 0725;10;8;9
20110109 0730;10;8;9
20110109 0735;10;8;9
20110109 0740;10;8;9
20110109 0745;10;8;9
20110109 0750;10;8;9
20110109 0755;10;8;9
20110109 0800;10;8;9
20110109 0805;10;8;9
20110109 0810;10;8;9
20110109 0815;10;8;9
20110109 0820;10;8;9
20110109 0825;10;8;9
20110109 0830;10;8;9
20110109 0835;10;8;9
20110109 0840;10;8;9
20110109 0845;10;8;9
20110109 0850;10;8;9
20110109 0855;10;8;9
20110109 0900;10;8;9
20110109 0905;10;8;9
20110109 0910;10;8;9
20110109 0915;10;8;9
20110109 0920;10;8;9
20110109 0925;10;8;9
20110109 0930;10;8;9
20110109 0935;10;8;9
20110109 0940;10;8;9
20110109 0945;10;8;9
20110109 0950;10;8;9
20110109 0955;10;8;9
20110109 1000;10;8;9
20110109 1005;10;8;9
20110109 1010;10;8;9
20110109 1015;10;8;9
20110109 1020;10;8;9
20110109 1025;10;8;9
20110109 1030;10;8;9
20110109 1035;10;8;9
20110109 1040;10;8;9
20110109 1045;10;8;9
20110109 1050;10;8;9
20110109 1055;10;8;9
20110109 1100;10;8;9
20110109 1105;10;8;9
20110109 1110;10;8;9
20110109 1115;10;8;9
20110109 1120;10;8;9
20110109 1125;10;8;9
20110109 1130;10;8;9
20110109 1135;10;8;9
20110109 1140;10;8;9
20110109 1145;10;8;9
20110109 1150;10;8;9
20110109 1155;10;8;9
20110109 1200;10;8;9
20110109 1205;10;8;9
20110109 1210;10;8;9
20110109 1215;10;8;9
20110109 1220;10;8;9
20110109 1225;10;8;9
20110109 1230;10;8;9
20110109 1235;10;8;9
20110109 1240;10;8;9
20110109 1245;10;8;9
20110109 1250;10;8;9
20110109 1255;10;8;9
20110109 1300;10;8;9
20110109 1305;10;8;9
20110109 1310;10;8;9
20110109 1315;10;8;9
20110109 1320;10;8;9
20110109 1325;10;8;9
20110109 1330;10;8;9
20110109 1335;10;8;9
20110109 1340;10;8;9
20110109 1345;10;8;9
20110109 1350;10;8;9
20110109 1355;10;8;9
20110109 1400;10;8;9
20110109 1405;10;8;9
20110109 1410;10;8;9
20110109 1415;10;8;9
20110109 1420;10;8;9
20110109 1425;10;8;9
20110109 1430;10;8;9
20110109 1435;10;8;9
20110109 1440;10;8;9
20110109 1445;10;8;9
20110109 1450;10;8;9
20110109 1455;10;8;9
20110109 1500;10;8;9
20110109 1505;10;8;9
20110109 1510;10;8;9
20110109 1515;10;8;9
20110109 1520;10;8;9
20110109 1525;10;8;9
20110109 1530;10;8;9
20110109 1535;10;8;9
20110109 1540;10;8;9
20110109 1545;10;8;9
20110109 1550;10;8;9
20110109 1555;10;8;9
20110109 1600;10;8;9
20110109 1605;10;8;9
20110109 1610;10;8;9
20110109 1615;10;8;9
20110109 1620;10;8;9
20110109 1625;10;8;9
20110109 1630;10;8;9
20110109 1635;10;8;9
20110109 1640;10;8;9
20110109 1645;10;8;9
20110109 1650;10;8;9
20110109 1655;10;8;9
20110109 1700;10;8;9
20110109 1705;10;8;9
20110109 1710;10;8;9
20110109 1715;10;8;9
20110109 1720;10;8;9
20110109 1725;10;8;9
20110109 1730;10;8;9
20110109 1735;10;8;9
20110109 1740;10;8;9
20110109 1745;10;8;9
20110109 1750;10;8;9
20110109 1755;10;8;9
20110109 1800;10;8;9
20110109 1805;10;8;9
20110109 1810;10;8;9
20110109 1815;10;8;9
20110109 1820;10;8;9
20110109 1825;10;8;9
20110109 1830;10;8;9
20110109 1835;10;8;9
20110109 1840;10;8;9
20110109 1845;10;8;9
20110109 1850;10;8;9
20110109 1855;10;8;9
20110109 1900;10;8;9
20110109 1905;10;8;9
20110109 1910;10;8;9
20110109 1915;10;8;9
20110109 1920;10;8;9
20110109 1925;10;8;9
20110109 1930;10;8;9
20110109 1935;10;8;9
20110109 1940;10;8;9
20110109 1945;10;8;9
20110109 1950;10;8;9
20110109 1955;10;8;9
20110109 2000;10;8;9
20110109 2005;10;8;9
20110109 2010;10;8;9
20110109 2015;10;8;9
20110109 2020;10;8;9
20110109 2025;10;8;9
20110109 2030;10;8;9
20110109 2035;10;8;9
20110109 2040;10;8;9
20110109 2045;10;8;9
20110109 2050;10;8;9
20110109 2055;10;8;9
20110109 2100;10;8;9
20110109 2105;10;8;9
20110109 2110;10;8;9
20110109 2115;10;8;9
20110109 2120;10;8;9
20110109 2125;10;8;9
20110109 2130;10;8;9
20110109 2135;10;8;9
20110109 2140;10;8;9
20110109 2145;10;8;9
20110109 2150;10;8;9
20110109 2155;10;8;9
20110109 2200;10;8;9
20110109 2205;10;8;9
20110109 2210;10;8;9
20110109 2215;10;8;9
20110109 2220;10;8;9
20110109 2225;10;8;9
20110109 2230;10;8;9
20110109 2235;10;8;9
20110109 2240;10;8;9
20110109 2245;10;8;9
20110109 2250;10;8;9
20110109 2255;10;8;9
20110109 2300;10;8;9
20110109 2305;10;8;9
20110109 2310;10;8;9
20110109 2315;10;8;9
20110109 2320;10;8;9
20110109 2325;10;8;9
20110109 2330;10;8;9
20110109 2335;10;8;9
20110109 2340;10;8;9
20110109 2345;10;8;9
20110109 2350;10;8;9
20110109 2355;10;8;9
20110110 0000;10;8;9
20110110 0005;10;8;9
20110110 0010;10;8;9
20110110 0015;10;8;9
20110110 0020;10;8;9
20110110 0025;10;8;9
20110110 0030;10;8;9
20110110 0035;10;8;9
20110110 0040;10;8;9
20110110 0045;10;8;9
20110110 0050;10;8;9
20110110 0055;10;8;9
20110110 0100;10;8;9
20110110 0105;10;8;9
20110110 0110;10;8;9
20110110 0115;10;8;9
20110110 0120;10;8;9
20110110 0125;10;8;9
20110110 0130;10;8;9
20110110 0135;10;8;9
20110110 0140;10;8;9
20110110 0145;10;8;9
20110110 0150;10;8;9
20110110 0155;10;8;9
20110110 0200;10;8;9
