"#1x = HOUSEs";"ID";"P1";"P2";"INIT CONDITION";;"not def";"not def";"not def";"not def";"ALGO TYPE";"SET POINT";"COMFORT AREA";"OPT HORIZON [s]"
"#GRADIENT THERMOSTATIC STEADYSTATE THERMOSTATICP";;;;;;;;;;;;;
11;1003;;;23;-578.5018836234;-0.5228811403;1.6897497742;;1;"POLICY";23;2;18000
11;1004;;;23;-2630.3973273339;0.8751631191;-0.3361656702;;1;"POLICY";23;2;18000
11;1005;;;23;-708.5500876198;-0.4894713346;2.7616885;;1;"POLICY";23;2;18000
11;1006;;;23;-2613.6422085593;-0.7317171494;1.4997304752;;1;"POLICY";23;2;18000
11;1007;;;23;922.9843644499;0.0020983577;2.5208268075;;1;"POLICY";23;2;18000
11;1008;;;23;498.961822287;0.1110243567;0.1452433074;;1;"POLICY";23;2;18000
11;1009;;;23;-743.9646222018;-1.0621510008;5.515242515;;1;"POLICY";23;2;18000
11;1010;;;23;2532.5106156897;-0.3626348198;-0.2788659864;;1;"POLICY";23;2;18000
11;1011;;;23;74.5313743916;-0.5906734789;-0.7067194308;;1;"POLICY";23;2;18000
11;1012;;;23;747.1158205957;0.5510570759;-1.9658754652;;1;"POLICY";23;2;18000
11;1013;;;23;684.1371354923;-0.3588413736;0.4864172113;;1;"POLICY";23;2;18000
11;1014;;;23;2201.3751737238;-0.1213812123;0.0622479863;;1;"POLICY";23;2;18000
11;1015;;;23;1805.9633121149;-0.5120916767;3.9169711049;;1;"POLICY";23;2;18000
11;1016;;;23;2209.1896472292;-0.3008879474;1.3379578007;;1;"POLICY";23;2;18000
11;1017;;;23;593.3422626151;0.5254387174;0.7409483736;;1;"POLICY";23;2;18000
11;1018;;;23;-909.8645741513;-0.1788601723;-1.8813805716;;1;"POLICY";23;2;18000
11;1019;;;23;356.5075875073;-0.1193623359;-1.9042198458;;1;"POLICY";23;2;18000
11;1020;;;23;161.0322368512;0.3042428783;0.5851402267;;1;"POLICY";23;2;18000
11;1021;;;23;1717.0400543637;0.3606595157;0.920823907;;1;"POLICY";23;2;18000
11;1022;;;23;-117.5216265314;0.9870727655;-0.5789859424;;1;"POLICY";23;2;18000
11;1023;;;23;-689.8875585999;-0.7634746758;-0.2445038844;;1;"POLICY";23;2;18000
11;1024;;;23;-432.7838685395;-0.0595130881;0.519684273;;1;"POLICY";23;2;18000
11;1025;;;23;1698.9426500763;0.5521996314;0.2398731172;;1;"POLICY";23;2;18000
11;1026;;;23;1525.209124395;0.1923223647;0.3394168952;;1;"POLICY";23;2;18000
11;1027;;;23;-1167.4014407206;-0.821161244;1.5250445452;;1;"POLICY";23;2;18000
11;1028;;;23;87.2391897207;0.4490285178;0.1137069006;;1;"POLICY";23;2;18000
11;1029;;;23;-2496.6725796838;0.2081492984;-1.4175101119;;1;"POLICY";23;2;18000
11;1030;;;23;374.6605345549;0.2369633076;-0.5454502506;;1;"POLICY";23;2;18000
11;1031;;;23;591.0636591669;1.8218006639;6.188605673;;1;"POLICY";23;2;18000
11;1032;;;23;255.6171523002;-0.3458008531;0.6840439126;;1;"POLICY";23;2;18000
11;1033;;;23;-433.247620552;-0.0216640143;-5.2880324711;;1;"POLICY";23;2;18000
11;1034;;;23;-225.5176345448;0.4947440726;1.9820650232;;1;"POLICY";23;2;18000
11;1035;;;23;-1751.1100169201;0.2528282207;0.9630800074;;1;"POLICY";23;2;18000
11;1036;;;23;962.2589329472;-0.0945057827;4.9390555918;;1;"POLICY";23;2;18000
11;1037;;;23;-1361.782134492;0.0861217559;3.7868556353;;1;"POLICY";23;2;18000
11;1038;;;23;-2899.0872240995;0.2971887883;-0.4154214404;;1;"POLICY";23;2;18000
11;1039;;;23;-1516.3202854331;0.9489656325;0.9370738066;;1;"POLICY";23;2;18000
11;1040;;;23;2336.5921398696;0.4418322235;-1.9650067995;;1;"POLICY";23;2;18000
11;1041;;;23;-1740.8927878158;0.0677827918;0.4656174392;;1;"POLICY";23;2;18000
11;1042;;;23;-980.8650403655;-0.1016427819;-0.8822222717;;1;"POLICY";23;2;18000
11;1043;;;23;-3137.6294436831;-0.3983860221;0.1923475662;;1;"POLICY";23;2;18000
11;1044;;;23;-2193.7250724029;-0.346660441;1.7880854736;;1;"POLICY";23;2;18000
11;1045;;;23;-574.397688216;0.9212215093;0.8804130514;;1;"POLICY";23;2;18000
11;1046;;;23;956.4138020781;-0.1243981182;-2.8035740218;;1;"POLICY";23;2;18000
11;1047;;;23;-1686.8883276714;-1.1250116001;1.638973408;;1;"POLICY";23;2;18000
11;1048;;;23;-1211.5115108726;0.1282399075;-0.2293055946;;1;"POLICY";23;2;18000
11;1049;;;23;-1051.5205416574;-0.0551660359;-1.4399843922;;1;"POLICY";23;2;18000
11;1050;;;23;1426.710739771;-0.8126633953;-1.0003244189;;1;"POLICY";23;2;18000
11;1051;;;23;-58.9881747136;-0.6171184429;-1.1209286533;;1;"POLICY";23;2;18000
11;1052;;;23;-578.5018836234;-0.5228811403;1.6897497742;;1;"POLICY";23;2;18000
