'# TIMESTAMP';'PRICE';
'# Use the following line to specify the index of the column that contains the price to use';;
'Column index';2;0
'20110101 0000';15;5
'20110101 0005';5.0000031707;5
'20110101 0010';14.9840734708;5
'20110101 0015';24.9999714639;5
'20110101 0020';15.0318530179;5
'20110101 0025';5.0000792669;5
'20110101 0030';14.9522205741;5
'20110101 0035';24.999844637;5
'20110101 0040';15.0637057127;5
'20110101 0045';5.0002568241;5
'20110101 0050';14.9203681621;5
'20110101 0055';24.99961635;5
'20110101 0100';15;5
'20110101 0105';9.1247247429;5
'20110101 0110';5.4914053949;5
'20110101 0115';5.4864862377;5
'20110101 0120';9.1118443803;5
'20110101 0125';14.9840734708;5
'20110101 0130';20.8623799917;5
'20110101 0135';24.5036513288;5
'20110101 0140';24.5184087882;5
'20110101 0145';20.9010210466;5
'20110101 0150';15.0318530179;5
'20110101 0155';9.1505301439;5
'20110101 0200';5.5013160539;5
'20110101 0205';5.4767203299;25
'20110101 0210';9.0861284946;25
'20110101 0215';14.9522205741;25
'20110101 0220';20.836544883;25
'20110101 0225';24.4936924696;25
'20110101 0230';24.5281263958;25
'20110101 0235';20.9267069634;25
'20110101 0240';15;25
'20110101 0245';11.911344799;25
'20110101 0250';9.1247247429;25
'20110101 0255';6.9126393945;25
'20110101 0300';5.4914053949;25
'20110101 0305';5.0000031707;25
'20110101 0310';5.4864862377;25
'20110101 0315';6.9032821172;25
'20110101 0320';9.1118443803;25
'20110101 0325';11.8962009033;25
'20110101 0330';14.9840734708;25
'20110101 0335';18.0735034707;25
'20110101 0340';20.8623799917;25
'20110101 0345';23.0779828143;25
'20110101 0350';24.5036513288;25
'20110101 0355';24.9999714639;25
'20110101 0400';24.5184087882;25
'20110101 0405';23.1060546223;25
'20110101 0410';20.9010210466;25
'20110101 0415';18.1189351195;25
'20110101 0420';15.0318530179;25
'20110101 0425';11.9416560556;25
'20110101 0430';9.1505301439;25
'20110101 0435';6.931415467;25
'20110101 0440';5.5013160539;25
'20110101 0445';5.0000792669;25
'20110101 0450';5.4767203299;25
'20110101 0455';6.8846291995;25
'20110101 0500';9.0861284946;25
'20110101 0505';11.865936769;25
'20110101 0510';14.9522205741;25
'20110101 0515';18.0431766605;25
'20110101 0520';20.836544883;25
'20110101 0525';23.0591657853;25
'20110101 0530';24.4936924696;25
'20110101 0535';24.999844637;25
'20110101 0540';24.5281263958;25
'20110101 0545';23.1246663937;25
'20110101 0550';20.9267069634;25
'20110101 0555';18.1491833928;25
'20110101 0600';15;5
'20110101 0605';14.3724127072;5
'20110101 0610';13.7472997049;5
'20110101 0615';13.1271255287;5
'20110101 0620';12.5143352425;5
'20110101 0625';11.911344799;5
'20110101 0630';11.3205315146;5
'20110101 0635';10.7442246966;5
'20110101 0640';10.1846964601;5
'20110101 0645';9.6441527698;5
'20110101 0650';9.1247247429;5
'20110101 0655';8.6284602472;5
'20110101 0700';8.1573158275;5
'20110101 0705';7.7131489913;5
'20110101 0710';7.297710886;5
'20110101 0715';6.9126393945;5
'20110101 0720';6.5594526781;10
'20110101 0725';6.2395431911;10
'20110101 0730';5.9541721906;10
'20110101 0735';5.7044647643;10
'20110101 0740';5.4914053949;10
'20110101 0745';5.3158340783;10
'20110101 0750';5.178443012;10
'20110101 0755';5.0797738664;10
'20110101 0800';5.020215649;10
'20110101 0805';5.0000031707;10
'20110101 0810';5.01921612;10
'20110101 0815';5.077778749;10
'20110101 0820';5.1754601721;10
'20110101 0825';5.3118752758;10
'20110101 0830';5.4864862377;10
'20110101 0835';5.6986046463;10
'20110101 0840';5.9473942155;10
'20110101 0845';6.2318740814;10
'20110101 0850';6.5509226697;10
'20110101 0855';6.9032821172;10
'20110101 0900';7.2875632314;10
'20110101 0905';7.702250967;10
'20110101 0910';8.1457103993;10
'20110101 0915';8.6161931701;10
'20110101 0920';9.1118443803;10
'20110101 0925';9.6307099032;10
'20110101 0930';10.1707440886;10
'20110101 0935';10.729817828;10
'20110101 0940';11.3057269486;10
'20110101 0945';11.8962009033;10
'20110101 0950';12.4989117225;10
'20110101 0955';13.1114831923;10
'20110101 1000';13.7315002228;10
'20110101 1005';14.3565183695;10
'20110101 1010';14.9840734708;10
'20110101 1015';15.6116913632;10
'20110101 1020';16.2368976355;10
'20110101 1025';16.8572273843;10
'20110101 1030';17.4702349325;10
'20110101 1035';18.0735034707;10
'20110101 1040';18.6646545863;10
'20110101 1045';19.2413576398;10
'20110101 1050';19.8013389541;10
'20110101 1055';20.3423907783;10
'20110101 1100';20.8623799917;10
'20110101 1105';21.359256514;10
'20110101 1110';21.8310613875;10
'20110101 1115';22.2759345009;10
'20110101 1120';22.6921219222;10
'20110101 1125';23.0779828143;10
'20110101 1130';23.4319959037;10
'20110101 1135';23.752765478;10
'20110101 1140';24.0390268892;10
'20110101 1145';24.289651539;10
'20110101 1150';24.5036513288;10
'20110101 1155';24.6801825549;10
'20110101 1200';24.8185492353;10
'20110101 1205';24.9182058531;10
'20110101 1210';24.9787595078;10
'20110101 1215';24.9999714639;10
'20110101 1220';24.9817580924;10
'20110101 1225';24.9241912002;10
'20110101 1230';24.8274977475;10
'20110101 1235';24.6920589523;10
'20110101 1240';24.5184087882;10
'20110101 1245';24.3072318784;10
'20110101 1250';24.0593607973;10
'20110101 1255';23.7757727875;10
'20110101 1300';23.4575859073;10
'20110101 1305';23.1060546223;10
'20110101 1310';22.7225648602;10
'20110101 1315';22.3086285463;10
'20110101 1320';21.8658776426;10
'20110101 1325';21.3960577142;10
'20110101 1330';20.9010210466;10
'20110101 1335';20.3827193439;10
'20110101 1340';19.8431960333;10
'20110101 1345';19.2845782091;10
'20110101 1350';18.7090682467;10
'20110101 1355';18.1189351195;10
'20110101 1400';17.5165054534;10
'20110101 1405';16.9041543537;10
'20110101 1410';16.2842960417;10
'20110101 1415';15.659374336;10
'20110101 1420';15;10
'20110101 1425';14.686051596;10
'20110101 1430';14.3724127072;10
'20110101 1435';14.0593925435;10
'20110101 1440';13.7472997049;10
'20110101 1445';13.4364418772;10
'20110101 1450';13.1271255287;10
'20110101 1455';12.8196556077;10
'20110101 1500';12.5143352425;10
'20110101 1505';12.2114654419;10
'20110101 1510';11.911344799;10
'20110101 1515';11.6142691964;15
'20110101 1520';11.3205315146;15
'20110101 1525';11.0304213435;15
'20110101 1530';10.7442246966;15
'20110101 1535';10.4622237292;15
'20110101 1540';10.1846964601;15
'20110101 1545';9.9119164976;15
'20110101 1550';9.6441527698;15
'20110101 1555';9.3816692592;15
'20110101 1600';9.1247247429;15
'20110101 1605';8.873572537;15
'20110101 1610';8.6284602472;15
'20110101 1615';8.3896295247;15
'20110101 1620';8.1573158275;15
'20110101 1625';7.9317481889;15
'20110101 1630';7.7131489913;15
'20110101 1635';7.5017337471;15
'20110101 1640';7.297710886;15
'20110101 1645';7.1012815499;15
'20110101 1650';6.9126393945;10
'20110101 1655';6.7319703979;10
'20110101 1700';6.5594526781;10
'20110101 1705';6.3952563166;10
'20110101 1710';6.2395431911;10
'20110101 1715';6.0924668159;10
'20110101 1720';5.9541721906;10
'20110101 1725';5.8247956568;10
'20110101 1730';5.7044647643;10
'20110101 1735';5.5932981448;10
'20110101 1740';5.4914053949;10
'20110101 1745';5.3988869688;10
'20110101 1750';5.3158340783;10
'20110101 1755';5.2423286035;10
'20110101 1800';5.178443012;10
'20110101 1805';5.1242402872;10
'20110101 1810';5.0797738664;10
'20110101 1815';5.0450875882;10
'20110101 1820';5.020215649;10
'20110101 1825';5.0051825696;10
'20110101 1830';5.0000031707;10
'20110101 1835';5.0046825586;10
'20110101 1840';5.01921612;10
'20110101 1845';5.0435895265;10
'20110101 1850';5.077778749;10
'20110101 1855';5.121750081;10
'20110101 1900';5.1754601721;10
'20110101 1905';5.2388560706;10
'20110101 1910';5.3118752758;10
'20110101 1915';5.3944457997;10
'20110101 1920';5.4864862377;10
'20110101 1925';5.587905849;10
'20110101 1930';5.6986046463;10
'20110101 1935';5.8184734938;10
'20110101 1940';5.9473942155;10
'20110101 1945';6.085239711;10
'20110101 1950';6.2318740814;10
'20110101 1955';6.387152763;10
'20110101 2000';6.5509226697;10
'20110101 2005';6.7230223443;10
'20110101 2010';6.9032821172;10
'20110101 2015';7.0915242743;10
'20110101 2020';7.2875632314;10
'20110101 2025';7.4912057179;10
'20110101 2030';7.702250967;10
'20110101 2035';7.9204909135;10
'20110101 2040';8.1457103993;10
'20110101 2045';8.3776873853;10
'20110101 2050';8.6161931701;10
'20110101 2055';8.860992616;10
'20110101 2100';9.1118443803;10
'20110101 2105';9.3685011536;10
'20110101 2110';9.6307099032;10
'20110101 2115';9.8982121232;10
'20110101 2120';10.1707440886;10
'20110101 2125';10.448037116;10
'20110101 2130';10.729817828;10
'20110101 2135';11.0158084229;10
'20110101 2140';11.3057269486;10
'20110101 2145';11.5992875805;10
'20110101 2150';11.8962009033;10
'20110101 2155';12.1961741964;10
'20110101 2200';12.4989117225;10
'20110101 2205';12.804115019;10
'20110101 2210';13.1114831923;10
'20110101 2215';13.4207132148;10
'20110101 2220';13.7315002228;10
'20110101 2225';14.0435378182;10
'20110101 2230';14.3565183695;10
'20110101 2235';14.6701333159;10
'20110101 2240';14.9840734708;10
'20110101 2245';15.2980293274;10
'20110101 2250';15.6116913632;10
'20110101 2255';15.9247503453;10
'20110101 2300';16.2368976355;10
'20110101 2305';16.5478254942;10
'20110101 2310';16.8572273843;10
'20110101 2315';17.164798273;10
'20110101 2320';17.4702349325;10
'20110101 2325';17.7732362393;10
'20110101 2330';18.0735034707;10
'20110101 2335';18.3707405997;10
'20110101 2340';18.6646545863;10
'20110101 2345';18.9549556669;10
'20110101 2350';19.2413576398;10
'20110101 2355';19.5235781473;10
'20110102 0000';19.8013389541;10
'20110102 0005';20.0743662217;10
'20110102 0010';20.3423907783;10
'20110102 0015';20.605148384;10
'20110102 0020';20.8623799917;10
'20110102 0025';21.1138320021;10
'20110102 0030';21.359256514;10
'20110102 0035';21.5984115684;10
'20110102 0040';21.8310613875;10
'20110102 0045';22.0569766067;10
'20110102 0050';22.2759345009;10
'20110102 0055';22.4877192041;10
'20110102 0100';22.6921219222;10
'20110102 0105';22.888941139;10
'20110102 0110';23.0779828143;10
'20110102 0115';23.2590605762;10
'20110102 0120';23.4319959037;10
'20110102 0125';23.5966183035;10
'20110102 0130';23.752765478;10
'20110102 0135';23.9002834849;10
'20110102 0140';24.0390268892;10
'20110102 0145';24.1688589068;10
'20110102 0150';24.289651539;10
'20110102 0155';24.401285699;10
'20110102 0200';24.5036513288;10
'20110102 0205';24.5966475085;10
'20110102 0210';24.6801825549;15
'20110102 0215';24.7541741128;15
'20110102 0220';24.8185492353;15
'20110102 0225';24.8732444563;15
'20110102 0230';24.9182058531;15
'20110102 0235';24.953389099;15
'20110102 0240';24.9787595078;15
'20110102 0245';24.9942920671;15
'20110102 0250';24.9999714639;15
'20110102 0255';24.9957920988;15
'20110102 0300';24.9817580924;15
'20110102 0305';24.9578832803;15
'20110102 0310';24.9241912002;15
'20110102 0315';24.8807150686;15
'20110102 0320';24.8274977475;15
'20110102 0325';24.7645917028;15
'20110102 0330';24.6920589523;15
'20110102 0335';24.6099710045;15
'20110102 0340';24.5184087882;15
'20110102 0345';24.4174625725;10
'20110102 0350';24.3072318784;10
'20110102 0355';24.1878253799;10
'20110102 0400';24.0593607973;10
'20110102 0405';23.9219647812;10
'20110102 0410';23.7757727875;10
'20110102 0415';23.6209289438;10
'20110102 0420';23.4575859073;10
'20110102 0425';23.2859047145;10
'20110102 0430';23.1060546223;10
'20110102 0435';22.9182129412;10
'20110102 0440';22.7225648602;10
'20110102 0445';22.5193032648;10
'20110102 0450';22.3086285463;10
'20110102 0455';22.0907484044;10
'20110102 0500';21.8658776426;10
'20110102 0505';21.6342379563;10
'20110102 0510';21.3960577142;10
'20110102 0515';21.1515717331;10
'20110102 0520';20.9010210466;10
'20110102 0525';20.6446526675;10
'20110102 0530';20.3827193439;10
'20110102 0535';20.1154793104;10
'20110102 0540';19.8431960333;10
'20110102 0545';19.5661379509;10
'20110102 0550';19.2845782091;10
'20110102 0555';18.9987943916;10
'20110102 0600';18.7090682467;10
'20110102 0605';18.4156854094;10
'20110102 0610';18.1189351195;10
'20110102 0615';17.8191099371;10
'20110102 0620';17.5165054534;10
'20110102 0625';17.2114199998;10
'20110102 0630';16.9041543537;10
'20110102 0635';16.5950114418;10
'20110102 0640';16.2842960417;10
'20110102 0645';15.972314481;10
'20110102 0650';15.659374336;10
'20110102 0655';15.3457841276;10
'20110102 0700';15;10
'20110102 0705';14.8430064497;10
'20110102 0710';14.686051596;10
'20110102 0715';14.5291741259;10
'20110102 0720';14.3724127072;10
'20110102 0725';14.2158059793;10
'20110102 0730';14.0593925435;10
'20110102 0735';13.9032109532;10
'20110102 0740';13.7472997049;10
'20110102 0745';13.5916972284;10
'20110102 0750';13.4364418772;10
'20110102 0755';13.2815719196;10
'20110102 0800';13.1271255287;10
'20110102 0805';12.9731407731;10
'20110102 0810';12.8196556077;10
'20110102 0815';12.6667078644;10
'20110102 0820';12.5143352425;10
'20110102 0825';12.3625752995;10
'20110102 0830';12.2114654419;10
'20110102 0835';12.0610429161;10
'20110102 0840';11.911344799;10
'20110102 0845';11.7624079889;15
'20110102 0850';11.6142691964;15
'20110102 0855';11.4669649355;15
'20110102 0900';11.3205315146;15
'20110102 0905';11.1750050272;15
'20110102 0910';11.0304213435;15
'20110102 0915';10.8868161011;15
'20110102 0920';10.7442246966;15
'20110102 0925';10.6026822767;15
'20110102 0930';10.4622237292;15
'20110102 0935';10.3228836753;15
'20110102 0940';10.1846964601;15
'20110102 0945';10.0476961447;15
'20110102 0950';9.9119164976;15
'20110102 0955';9.7773909865;15
'20110102 1000';9.6441527698;15
'20110102 1005';9.5122346887;15
'20110102 1010';9.3816692592;15
'20110102 1015';9.2524886635;15
'20110102 1020';9.1247247429;15
'20110102 1025';8.998408989;15
'20110102 1030';8.873572537;15
'20110102 1035';8.750246157;15
'20110102 1040';8.6284602472;15
'20110102 1045';8.508244826;15
'20110102 1050';8.3896295247;15
'20110102 1055';8.2726435801;15
'20110102 1100';8.1573158275;15
'20110102 1105';8.0436746935;15
'20110102 1110';7.9317481889;15
'20110102 1115';7.821563902;15
'20110102 1120';7.7131489913;15
'20110102 1125';7.6065301797;15
'20110102 1130';7.5017337471;15
'20110102 1135';7.3987855241;15
'20110102 1140';7.297710886;15
'20110102 1145';7.1985347461;15
'20110102 1150';7.1012815499;15
'20110102 1155';7.0059752689;15
'20110102 1200';6.9126393945;15
'20110102 1205';6.8212969326;15
'20110102 1210';6.7319703979;15
'20110102 1215';6.644681808;15
'20110102 1220';6.5594526781;15
'20110102 1225';6.476304016;15
'20110102 1230';6.3952563166;15
'20110102 1235';6.3163295568;15
'20110102 1240';6.2395431911;15
'20110102 1245';6.1649161459;15
'20110102 1250';6.0924668159;15
'20110102 1255';6.0222130586;15
'20110102 1300';5.9541721906;15
'20110102 1305';5.8883609828;15
'20110102 1310';5.8247956568;15
'20110102 1315';5.7634918805;15
'20110102 1320';5.7044647643;15
'20110102 1325';5.6477288576;15
'20110102 1330';5.5932981448;15
'20110102 1335';5.5411860423;15
'20110102 1340';5.4914053949;15
'20110102 1345';5.4439684729;15
'20110102 1350';5.3988869688;15
'20110102 1355';5.3561719944;15
'20110102 1400';5.3158340783;15
'20110102 1405';5.2778831632;15
'20110102 1410';5.2423286035;15
'20110102 1415';5.2091791628;15
'20110102 1420';5.178443012;15
'20110102 1425';5.150127727;15
'20110102 1430';5.1242402872;15
'20110102 1435';5.1007870734;15
'20110102 1440';5.0797738664;15
'20110102 1445';5.0612058458;15
'20110102 1450';5.0450875882;15
'20110102 1455';5.0314230666;15
'20110102 1500';5.020215649;15
'20110102 1505';5.011468098;15
'20110102 1510';5.0051825696;15
'20110102 1515';5.0013606131;15
'20110102 1520';5.0000031707;15
'20110102 1525';5.0011105768;15
'20110102 1530';5.0046825586;15
'20110102 1535';5.0107182355;15
'20110102 1540';5.01921612;15
'20110102 1545';5.0301741173;15
'20110102 1550';5.0435895265;15
'20110102 1555';5.059459041;15
'20110102 1600';5.077778749;15
'20110102 1605';5.0985441351;15
'20110102 1610';5.121750081;15
'20110102 1615';5.1473908667;15
'20110102 1620';5.1754601721;15
'20110102 1625';5.2059510785;15
'20110102 1630';5.2388560706;15
'20110102 1635';5.2741670375;15
'20110102 1640';5.3118752758;15
'20110102 1645';5.3519714909;15
'20110102 1650';5.3944457997;15
'20110102 1655';5.4392877329;15
'20110102 1700';5.4864862377;15
'20110102 1705';5.5360296803;15
'20110102 1710';5.587905849;15
'20110102 1715';5.6421019572;15
'20110102 1720';5.6986046463;15
'20110102 1725';5.7573999892;15
'20110102 1730';5.8184734938;15
'20110102 1735';5.8818101064;15
'20110102 1740';5.9473942155;15
'20110102 1745';6.0152096555;15
'20110102 1750';6.085239711;15
'20110102 1755';6.1574671206;15
'20110102 1800';6.2318740814;15
'20110102 1805';6.3084422531;15
'20110102 1810';6.387152763;15
'20110102 1815';6.4679862099;15
'20110102 1820';6.5509226697;15
'20110102 1825';6.6359416998;15
'20110102 1830';6.7230223443;15
'20110102 1835';6.8121431391;15
'20110102 1840';6.9032821172;15
'20110102 1845';6.9964168144;15
'20110102 1850';7.0915242743;15
'20110102 1855';7.1885810543;15
'20110102 1900';7.2875632314;15
'20110102 1905';7.388446408;15
'20110102 1910';7.4912057179;15
'20110102 1915';7.5958158325;15
'20110102 1920';7.702250967;15
'20110102 1925';7.8104848867;15
'20110102 1930';7.9204909135;15
'20110102 1935';8.0322419327;15
'20110102 1940';8.1457103993;15
'20110102 1945';8.2608683451;15
'20110102 1950';8.3776873853;15
'20110102 1955';8.4961387258;15
'20110102 2000';8.6161931701;15
'20110102 2005';8.7378211267;15
'20110102 2010';8.860992616;15
'20110102 2015';8.9856772782;15
'20110102 2020';9.1118443803;15
'20110102 2025';9.2394628241;15
'20110102 2030';9.3685011536;15
'20110102 2035';9.4989275626;15
'20110102 2040';9.6307099032;15
'20110102 2045';9.7638156929;15
'20110102 2050';9.8982121232;15
'20110102 2055';10.0338660673;15
'20110102 2100';10.1707440886;15
'20110102 2105';10.3088124488;15
'20110102 2110';10.448037116;15
'20110102 2115';10.5883837736;15
'20110102 2120';10.729817828;15
'20110102 2125';10.8723044181;15
'20110102 2130';11.0158084229;15
'20110102 2135';11.160294471;15
'20110102 2140';11.3057269486;15
'20110102 2145';11.4520700089;15
'20110102 2150';11.5992875805;15
'20110102 2155';11.7473433764;15
'20110102 2200';11.8962009033;15
'20110102 2205';12.0458234698;15
'20110102 2210';12.1961741964;15
'20110102 2215';12.3472160238;15
'20110102 2220';12.4989117225;15
'20110102 2225';12.6512239018;15
'20110102 2230';12.804115019;15
'20110102 2235';12.9575473888;15
'20110102 2240';13.1114831923;15
'20110102 2245';13.2658844869;15
'20110102 2250';13.4207132148;15
'20110102 2255';13.575931213;15
'20110102 2300';13.7315002228;15
'20110102 2305';13.8873818987;15
'20110102 2310';14.0435378182;15
'20110102 2315';14.1999294912;15
'20110102 2320';14.3565183695;15
'20110102 2325';14.5132658564;15
'20110102 2330';14.6701333159;15
'20110102 2335';14.8270820825;15
'20110102 2340';14.9840734708;15
'20110102 2345';15.1410687848;15
'20110102 2350';15.2980293274;15
'20110102 2355';15.4549164104;15
'20110103 0000';15.6116913632;15
'20110103 0005';15.7683155434;15
'20110103 0010';15.9247503453;15
'20110103 0015';16.0809572102;15
'20110103 0020';16.2368976355;15
'20110103 0025';16.3925331841;15
'20110103 0030';16.5478254942;15
'20110103 0035';16.7027362887;15
'20110103 0040';16.8572273843;15
'20110103 0045';17.0112607014;15
'20110103 0050';17.164798273;15
'20110103 0055';17.3178022544;15
'20110103 0100';17.4702349325;15
'20110103 0105';17.6220587349;15
'20110103 0110';17.7732362393;15
'20110103 0115';17.9237301828;15
'20110103 0120';18.0735034707;15
'20110103 0125';18.2225191864;15
'20110103 0130';18.3707405997;15
'20110103 0135';18.5181311761;15
'20110103 0140';18.6646545863;15
'20110103 0145';18.8102747142;15
'20110103 0150';18.9549556669;15
'20110103 0155';19.0986617825;15
'20110103 0200';19.2413576398;15
'20110103 0205';19.3830080663;15
'20110103 0210';19.5235781473;15
'20110103 0215';19.6630332344;15
'20110103 0220';19.8013389541;15
'20110103 0225';19.9384612161;15
'20110103 0230';20.0743662217;15
'20110103 0235';20.2090204726;15
'20110103 0240';20.3423907783;15
'20110103 0245';20.4744442652;15
'20110103 0250';20.605148384;15
'20110103 0255';20.7344709182;15
'20110103 0300';20.8623799917;15
'20110103 0305';20.9888440768;15
'20110103 0310';21.1138320021;15
'20110103 0315';21.2373129599;15
'20110103 0320';21.359256514;15
'20110103 0325';21.4796326071;15
'20110103 0330';21.5984115684;15
'20110103 0335';21.7155641207;15
'20110103 0340';21.8310613875;15
'20110103 0345';21.9448749006;15
'20110103 0350';22.0569766067;15
'20110103 0355';22.1673388743;15
'20110103 0400';22.2759345009;15
'20110103 0405';22.3827367192;15
'20110103 0410';22.4877192041;15
'20110103 0415';22.590856079;15
'20110103 0420';22.6921219222;15
'20110103 0425';22.7914917733;15
'20110103 0430';22.888941139;15
'20110103 0435';22.9844459995;15
'20110103 0440';23.0779828143;15
'20110103 0445';23.1695285281;15
'20110103 0450';23.2590605762;15
'20110103 0455';23.3465568902;15
'20110103 0500';23.4319959037;15
'20110103 0505';23.5153565572;15
'20110103 0510';23.5966183035;15
'20110103 0515';23.675761113;15
'20110103 0520';23.752765478;15
'20110103 0525';23.8276124182;15
'20110103 0530';23.9002834849;15
'20110103 0535';23.9707607657;15
'20110103 0540';24.0390268892;10
'20110103 0545';24.1050650287;10
'20110103 0550';24.1688589068;10
'20110103 0555';24.2303927993;10
'20110103 0600';24.289651539;10
'20110103 0605';24.3466205196;10
'20110103 0610';24.401285699;10
'20110103 0615';24.453633603;10
'20110103 0620';24.5036513288;10
'20110103 0625';24.5513265477;10
'20110103 0630';24.5966475085;10
'20110103 0635';24.6396030402;10
'20110103 0640';24.6801825549;10
'20110103 0645';24.7183760505;10
'20110103 0650';24.7541741128;10
'20110103 0655';24.787567918;10
'20110103 0700';24.8185492353;10
'20110103 0705';24.847110428;10
'20110103 0710';24.8732444563;10
'20110103 0715';24.8969448786;10
'20110103 0720';24.9182058531;10
'20110103 0725';24.9370221392;10
'20110103 0730';24.953389099;10
'20110103 0735';24.9673026984;10
'20110103 0740';24.9787595078;10
'20110103 0745';24.9877567032;10
'20110103 0750';24.9942920671;10
'20110103 0755';24.9983639886;10
'20110103 0800';24.9999714639;10
'20110103 0805';24.9991140969;10
'20110103 0810';24.9957920988;10
'20110103 0815';24.9900062886;10
'20110103 0820';24.9817580924;10
'20110103 0825';24.9710495431;10
'20110103 0830';24.9578832803;10
'20110103 0835';24.9422625492;10
'20110103 0840';24.9241912002;10
'20110103 0845';24.9036736876;10
'20110103 0850';24.8807150686;10
'20110103 0855';24.8553210021;10
'20110103 0900';24.8274977475;10
'20110103 0905';24.7972521627;10
'20110103 0910';24.7645917028;10
'20110103 0915';24.7295244182;10
'20110103 0920';24.6920589523;10
'20110103 0925';24.6522045399;10
'20110103 0930';24.6099710045;10
'20110103 0935';24.565368756;10
'20110103 0940';24.5184087882;10
'20110103 0945';24.4691026759;10
'20110103 0950';24.4174625725;10
'20110103 0955';24.3635012065;10
'20110103 1000';24.3072318784;10
'20110103 1005';24.2486684579;10
'20110103 1010';24.1878253799;10
'20110103 1015';24.1247176413;10
'20110103 1020';24.0593607973;10
'20110103 1025';23.9917709573;10
'20110103 1030';23.9219647812;10
'20110103 1035';23.8499594752;10
'20110103 1040';23.7757727875;10
'20110103 1045';23.699423004;10
'20110103 1050';23.6209289438;10
'20110103 1055';23.5403099544;10
'20110103 1100';23.4575859073;10
'20110103 1105';23.3727771926;10
'20110103 1110';23.2859047145;10
'20110103 1115';23.1969898857;10
'20110103 1120';23.1060546223;10
'20110103 1125';23.0131213386;10
'20110103 1130';22.9182129412;10
'20110103 1135';22.8213528235;10
'20110103 1140';22.7225648602;10
'20110103 1145';22.621873401;10
'20110103 1150';22.5193032648;10
'20110103 1155';22.4148797337;10
'20110103 1200';22.3086285463;10
'20110103 1205';22.2005758921;10
'20110103 1210';22.0907484044;10
'20110103 1215';21.9791731541;10
'20110103 1220';21.8658776426;10
'20110103 1225';21.7508897958;10
'20110103 1230';21.6342379563;10
'20110103 1235';21.5159508771;10
'20110103 1240';21.3960577142;10
'20110103 1245';21.2745880193;10
'20110103 1250';21.1515717331;10
'20110103 1255';21.027039177;10
'20110103 1300';20.9010210466;10
'20110103 1305';20.7735484034;10
'20110103 1310';20.6446526675;10
'20110103 1315';20.5143656097;10
'20110103 1320';20.3827193439;10
'20110103 1325';20.2497463188;10
'20110103 1330';20.1154793104;10
'20110103 1335';19.9799514133;10
'20110103 1340';19.8431960333;10
'20110103 1345';19.7052468783;10
'20110103 1350';19.5661379509;10
'20110103 1355';19.4259035393;10
'20110103 1400';19.2845782091;10
'20110103 1405';19.1421967949;10
'20110103 1410';18.9987943916;10
'20110103 1415';18.8544063457;10
'20110103 1420';18.7090682467;10
'20110103 1425';18.5628159183;10
'20110103 1430';18.4156854094;10
'20110103 1435';18.2677129855;10
'20110103 1440';18.1189351195;10
'20110103 1445';17.9693884831;10
'20110103 1450';17.8191099371;10
'20110103 1455';17.668136523;10
'20110103 1500';17.5165054534;10
'20110103 1505';17.3642541031;10
'20110103 1510';17.2114199998;10
'20110103 1515';17.0580408148;10
'20110103 1520';16.9041543537;10
'20110103 1525';16.7497985472;10
'20110103 1530';16.5950114418;10
'20110103 1535';16.4398311901;10
'20110103 1540';16.2842960417;10
'20110103 1545';16.1284443336;10
'20110103 1550';15.972314481;10
'20110103 1555';15.8159449676;10
'20110103 1600';15.659374336;10
'20110103 1605';15.5026411785;10
'20110103 1610';15.3457841276;10
'20110103 1615';15.1888418461;10
'20110103 1620';15;10
'20110103 1625';14.9215008062;10
'20110103 1630';14.8430064497;10
'20110103 1635';14.7645217675;10
'20110103 1640';14.686051596;10
'20110103 1645';14.6076007707;10
'20110103 1650';14.5291741259;10
'20110103 1655';14.4507764944;10
'20110103 1700';14.3724127072;10
'20110103 1705';14.2940875933;10
'20110103 1710';14.2158059793;10
'20110103 1715';14.1375726891;10
'20110103 1720';14.0593925435;10
'20110103 1725';13.9812703602;10
'20110103 1730';13.9032109532;10
'20110103 1735';13.8252191328;10
'20110103 1740';13.7472997049;10
'20110103 1745';13.6694574712;10
'20110103 1750';13.5916972284;10
'20110103 1755';13.5140237683;10
'20110103 1800';13.4364418772;10
'20110103 1805';13.3589563361;10
'20110103 1810';13.2815719196;10
'20110103 1815';13.2042933965;10
'20110103 1820';13.1271255287;10
'20110103 1825';13.0500730715;10
'20110103 1830';12.9731407731;10
'20110103 1835';12.8963333741;10
'20110103 1840';12.8196556077;10
'20110103 1845';12.7431121989;10
'20110103 1850';12.6667078644;10
'20110103 1855';12.5904473125;10
'20110103 1900';12.5143352425;10
'20110103 1905';12.4383763446;10
'20110103 1910';12.3625752995;10
'20110103 1915';12.2869367783;10
'20110103 1920';12.2114654419;10
'20110103 1925';12.1361659412;10
'20110103 1930';12.0610429161;10
'20110103 1935';11.9861009961;10
'20110103 1940';11.911344799;10
'20110103 1945';11.8367789316;10
'20110103 1950';11.7624079889;10
'20110103 1955';11.6882365536;10
'20110103 2000';11.6142691964;10
'20110103 2005';11.5405104753;10
'20110103 2010';11.4669649355;10
'20110103 2015';11.3936371091;10
'20110103 2020';11.3205315146;10
'20110103 2025';11.247652657;10
'20110103 2030';11.1750050272;10
'20110103 2035';11.102593102;10
'20110103 2040';11.0304213435;10
'20110103 2045';10.9584941991;10
'20110103 2050';10.8868161011;10
'20110103 2055';10.8153914665;10
'20110103 2100';10.7442246966;10
'20110103 2105';10.6733201769;10
'20110103 2110';10.6026822767;10
'20110103 2115';10.5323153487;10
'20110103 2120';10.4622237292;10
'20110103 2125';10.3924117375;10
'20110103 2130';10.3228836753;10
'20110103 2135';10.2536438273;10
'20110103 2140';10.1846964601;10
'20110103 2145';10.1160458225;10
'20110103 2150';10.0476961447;10
'20110103 2155';9.9796516388;10
'20110103 2200';9.9119164976;10
'20110103 2205';9.8444948953;10
'20110103 2210';9.7773909865;10
'20110103 2215';9.7106089062;10
'20110103 2220';9.6441527698;10
'20110103 2225';9.5780266723;10
'20110103 2230';9.5122346887;10
'20110103 2235';9.4467808732;10
'20110103 2240';9.3816692592;10
'20110103 2245';9.316903859;10
'20110103 2250';9.2524886635;10
'20110103 2255';9.1884276423;10
'20110103 2300';9.1247247429;10
'20110103 2305';9.0613838907;10
'20110103 2310';8.998408989;10
'20110103 2315';8.9358039185;10
'20110103 2320';8.873572537;10
'20110103 2325';8.8117186793;10
'20110103 2330';8.750246157;10
'20110103 2335';8.6891587582;10
'20110103 2340';8.6284602472;10
'20110103 2345';8.5681543644;10
'20110103 2350';8.508244826;10
'20110103 2355';8.4487353237;10
'20110104 0000';8.3896295247;10
'20110104 0005';8.3309310711;10
'20110104 0010';8.2726435801;10
'20110104 0015';8.2147706435;10
'20110104 0020';8.1573158275;10
'20110104 0025';8.1002826727;10
'20110104 0030';8.0436746935;10
'20110104 0035';7.9874953783;10
'20110104 0040';7.9317481889;10
'20110104 0045';7.8764365607;10
'20110104 0050';7.821563902;10
'20110104 0055';7.7671335941;10
'20110104 0100';7.7131489913;10
'20110104 0105';7.6596134202;10
'20110104 0110';7.6065301797;10
'20110104 0115';7.553902541;10
'20110104 0120';7.5017337471;10
'20110104 0125';7.4500270127;10
'20110104 0130';7.3987855241;10
'20110104 0135';7.3480124389;10
'20110104 0140';7.297710886;10
'20110104 0145';7.2478839649;10
'20110104 0150';7.1985347461;10
'20110104 0155';7.1496662707;10
'20110104 0200';7.1012815499;10
'20110104 0205';7.0533835655;10
'20110104 0210';7.0059752689;10
'20110104 0215';6.9590595815;10
'20110104 0220';6.9126393945;10
'20110104 0225';6.8667175682;10
'20110104 0230';6.8212969326;10
'20110104 0235';6.7763802866;10
'20110104 0240';6.7319703979;10
'20110104 0245';6.6880700033;10
'20110104 0250';6.644681808;10
'20110104 0255';6.6018084856;10
'20110104 0300';6.5594526781;10
'20110104 0305';6.5176169956;10
'20110104 0310';6.476304016;10
'20110104 0315';6.4355162852;10
'20110104 0320';6.3952563166;10
'20110104 0325';6.355526591;10
'20110104 0330';6.3163295568;10
'20110104 0335';6.2776676294;10
'20110104 0340';6.2395431911;10
'20110104 0345';6.2019585912;10
'20110104 0350';6.1649161459;10
'20110104 0355';6.1284181378;10
'20110104 0400';6.0924668159;10
'20110104 0405';6.0570643956;10
'20110104 0410';6.0222130586;10
'20110104 0415';5.9879149524;10
'20110104 0420';5.9541721906;10
'20110104 0425';5.9209868524;10
'20110104 0430';5.8883609828;10
'20110104 0435';5.8562965923;10
'20110104 0440';5.8247956568;10
'20110104 0445';5.7938601175;10
'20110104 0450';5.7634918805;10
'20110104 0455';5.7336928174;10
'20110104 0500';5.7044647643;10
'20110104 0505';5.6758095225;10
'20110104 0510';5.6477288576;10
'20110104 0515';5.6202245;10
'20110104 0520';5.5932981448;10
'20110104 0525';5.566951451;10
'20110104 0530';5.5411860423;10
'20110104 0535';5.5160035063;10
'20110104 0540';5.4914053949;10
'20110104 0545';5.4673932239;10
'20110104 0550';5.4439684729;10
'20110104 0555';5.4211325855;10
'20110104 0600';5.3988869688;10
'20110104 0605';5.3772329936;10
'20110104 0610';5.3561719944;10
'20110104 0615';5.3357052688;10
'20110104 0620';5.3158340783;10
'20110104 0625';5.2965596471;10
'20110104 0630';5.2778831632;10
'20110104 0635';5.2598057773;10
'20110104 0640';5.2423286035;10
'20110104 0645';5.2254527187;10
'20110104 0650';5.2091791628;10
'20110104 0655';5.1935089387;10
'20110104 0700';5.178443012;10
'20110104 0705';5.1639823111;10
'20110104 0710';5.150127727;10
'20110104 0715';5.1368801136;10
'20110104 0720';5.1242402872;10
'20110104 0725';5.1122090266;10
'20110104 0730';5.1007870734;10
'20110104 0735';5.0899751312;10
'20110104 0740';5.0797738664;10
'20110104 0745';5.0701839076;10
'20110104 0750';5.0612058458;10
'20110104 0755';5.0528402342;10
'20110104 0800';5.0450875882;10
'20110104 0805';5.0379483857;10
'20110104 0810';5.0314230666;10
'20110104 0815';5.0255120329;10
'20110104 0820';5.020215649;10
'20110104 0825';5.0155342412;10
'20110104 0830';5.011468098;10
'20110104 0835';5.0080174699;10
'20110104 0840';5.0051825696;10
'20110104 0845';5.0029635718;10
'20110104 0850';5.0013606131;10
'20110104 0855';5.0003737925;10
'20110104 0900';5.0000031707;10
'20110104 0905';5.0002487705;10
'20110104 0910';5.0011105768;10
'20110104 0915';5.0025885365;10
'20110104 0920';5.0046825586;10
'20110104 0925';5.0073925139;10
'20110104 0930';5.0107182355;10
'20110104 0935';5.0146595185;10
'20110104 0940';5.01921612;10
'20110104 0945';5.0243877591;10
'20110104 0950';5.0301741173;10
'20110104 0955';5.0365748379;10
'20110104 1000';5.0435895265;10
'20110104 1005';5.0512177509;10
'20110104 1010';5.059459041;10
'20110104 1015';5.0683128889;10
'20110104 1020';5.077778749;10
'20110104 1025';5.0878560381;10
'20110104 1030';5.0985441351;10
'20110104 1035';5.1098423815;10
'20110104 1040';5.121750081;10
'20110104 1045';5.1342664998;10
'20110104 1050';5.1473908667;10
'20110104 1055';5.1611223728;10
'20110104 1100';5.1754601721;10
'20110104 1105';5.1904033809;10
'20110104 1110';5.2059510785;10
'20110104 1115';5.2221023068;10
'20110104 1120';5.2388560706;10
'20110104 1125';5.2562113373;10
'20110104 1130';5.2741670375;10
'20110104 1135';5.2927220648;10
'20110104 1140';5.3118752758;10
'20110104 1145';5.3316254902;10
'20110104 1150';5.3519714909;10
'20110104 1155';5.3729120242;10
'20110104 1200';5.3944457997;10
'20110104 1205';5.4165714904;10
'20110104 1210';5.4392877329;10
'20110104 1215';5.4625931274;10
'20110104 1220';5.4864862377;10
'20110104 1225';5.5109655915;10
'20110104 1230';5.5360296803;10
'20110104 1235';5.5616769596;10
'20110104 1240';5.587905849;10
'20110104 1245';5.6147147322;10
'20110104 1250';5.6421019572;10
'20110104 1255';5.6700658363;10
'20110104 1300';5.6986046463;10
'20110104 1305';5.7277166286;10
'20110104 1310';5.7573999892;10
'20110104 1315';5.787652899;10
'20110104 1320';5.8184734938;10
'20110104 1325';5.8498598743;10
'20110104 1330';5.8818101064;10
'20110104 1335';5.9143222213;10
'20110104 1340';5.9473942155;10
'20110104 1345';5.981024051;10
'20110104 1350';6.0152096555;10
'20110104 1355';6.0499489224;10
'20110104 1400';6.085239711;10
'20110104 1405';6.1210798466;10
'20110104 1410';6.1574671206;10
'20110104 1415';6.1943992908;10
'20110104 1420';6.2318740814;10
'20110104 1425';6.269889183;10
'20110104 1430';6.3084422531;10
'20110104 1435';6.347530916;10
'20110104 1440';6.387152763;10
'20110104 1445';6.4273053523;10
'20110104 1450';6.4679862099;10
'20110104 1455';6.5091928287;10
'20110104 1500';6.5509226697;10
'20110104 1505';6.5931731612;10
'20110104 1510';6.6359416998;10
'20110104 1515';6.6792256499;10
'20110104 1520';6.7230223443;10
'20110104 1525';6.7673290841;10
'20110104 1530';6.8121431391;10
'20110104 1535';6.8574617476;10
'20110104 1540';6.9032821172;10
'20110104 1545';6.9496014242;10
'20110104 1550';6.9964168144;10
'20110104 1555';7.0437254028;10
'20110104 1600';7.0915242743;10
'20110104 1605';7.1398104833;10
'20110104 1610';7.1885810543;10
'20110104 1615';7.237832982;10
'20110104 1620';7.2875632314;10
'20110104 1625';7.337768738;10
'20110104 1630';7.388446408;10
'20110104 1635';7.4395931186;10
'20110104 1640';7.4912057179;10
'20110104 1645';7.5432810256;10
'20110104 1650';7.5958158325;10
'20110104 1655';7.6488069015;10
'20110104 1700';7.702250967;10
'20110104 1705';7.7561447357;10
'20110104 1710';7.8104848867;10
'20110104 1715';7.8652680712;10
'20110104 1720';7.9204909135;10
'20110104 1725';7.9761500106;10
'20110104 1730';8.0322419327;10
'20110104 1735';8.0887632233;10
'20110104 1740';8.1457103993;10
'20110104 1745';8.2030799517;10
'20110104 1750';8.2608683451;10
'20110104 1755';8.3190720185;10
'20110104 1800';8.3776873853;10
'20110104 1805';8.4367108334;10
'20110104 1810';8.4961387258;10
'20110104 1815';8.5559674003;10
'20110104 1820';8.6161931701;10
'20110104 1825';8.6768123241;10
'20110104 1830';8.7378211267;10
'20110104 1835';8.7992158184;10
'20110104 1840';8.860992616;10
'20110104 1845';8.9231477126;10
'20110104 1850';8.9856772782;10
'20110104 1855';9.0485774594;10
'20110104 1900';9.1118443803;10
'20110104 1905';9.1754741422;10
'20110104 1910';9.2394628241;10
'20110104 1915';9.3038064829;10
'20110104 1920';9.3685011536;10
'20110104 1925';9.4335428495;10
'20110104 1930';9.4989275626;10
'20110104 1935';9.5646512639;10
'20110104 1940';9.6307099032;10
'20110104 1945';9.6970994099;10
'20110104 1950';9.7638156929;10
'20110104 1955';9.830854641;10
'20110104 2000';9.8982121232;10
'20110104 2005';9.9658839886;10
'20110104 2010';10.0338660673;10
'20110104 2015';10.10215417;10
'20110104 2020';10.1707440886;10
'20110104 2025';10.2396315966;10
'20110104 2030';10.3088124488;10
'20110104 2035';10.3782823823;10
'20110104 2040';10.448037116;10
'20110104 2045';10.5180723517;10
'20110104 2050';10.5883837736;10
'20110104 2055';10.6589670488;10
'20110104 2100';10.729817828;10
'20110104 2105';10.8009317452;10
'20110104 2110';10.8723044181;10
'20110104 2115';10.9439314486;10
'20110104 2120';11.0158084229;10
'20110104 2125';11.0879309118;10
'20110104 2130';11.160294471;10
'20110104 2135';11.2328946412;10
'20110104 2140';11.3057269486;10
'20110104 2145';11.3787869052;10
'20110104 2150';11.4520700089;10
'20110104 2155';11.5255717438;10
'20110104 2200';11.5992875805;10
'20110104 2205';11.6732129765;10
'20110104 2210';11.7473433764;10
'20110104 2215';11.8216742122;10
'20110104 2220';11.8962009033;10
'20110104 2225';11.9709188573;10
'20110104 2230';12.0458234698;10
'20110104 2235';12.1209101252;10
'20110104 2240';12.1961741964;10
'20110104 2245';12.2716110455;10
'20110104 2250';12.3472160238;10
'20110104 2255';12.4229844725;10
'20110104 2300';12.4989117225;10
'20110104 2305';12.574993095;10
'20110104 2310';12.6512239018;10
'20110104 2315';12.7275994452;10
'20110104 2320';12.804115019;10
'20110104 2325';12.880765908;10
'20110104 2330';12.9575473888;10
'20110104 2335';13.03445473;10
'20110104 2340';13.1114831923;10
'20110104 2345';13.1886280293;10
'20110104 2350';13.2658844869;10
'20110104 2355';13.3432478045;10
'20110105 0000';13.4207132148;10
'20110105 0005';13.4982759441;10
'20110105 0010';13.575931213;10
'20110105 0015';13.6536742362;10
'20110105 0020';13.7315002228;10
'20110105 0025';13.8094043772;10
'20110105 0030';13.8873818987;10
'20110105 0035';13.9654279821;10
'20110105 0040';14.0435378182;10
'20110105 0045';14.1217065935;10
'20110105 0050';14.1999294912;10
'20110105 0055';14.2782016909;10
'20110105 0100';14.3565183695;10
'20110105 0105';14.4348747008;10
'20110105 0110';14.5132658564;10
'20110105 0115';14.5916870055;10
'20110105 0120';14.6701333159;10
'20110105 0125';14.7485999533;10
'20110105 0130';14.8270820825;10
'20110105 0135';14.9055748673;10
'20110105 0140';14.9840734708;10
'20110105 0145';15.0625730558;10
'20110105 0150';15.1410687848;10
'20110105 0155';15.2195558209;10
'20110105 0200';15.2980293274;10
'20110105 0205';15.3764844688;10
'20110105 0210';15.4549164104;10
'20110105 0215';15.533320319;10
'20110105 0220';15.6116913632;10
'20110105 0225';15.6900247137;10
'20110105 0230';15.7683155434;10
'20110105 0235';15.8465590277;10
'20110105 0240';15.9247503453;10
'20110105 0245';16.0028846777;10
'20110105 0250';16.0809572102;10
'20110105 0255';16.1589631318;10
'20110105 0300';16.2368976355;10
'20110105 0305';16.3147559188;10
'20110105 0310';16.3925331841;10
'20110105 0315';16.4702246384;10
'20110105 0320';16.5478254942;10
'20110105 0325';16.6253309697;10
'20110105 0330';16.7027362887;10
'20110105 0335';16.7800366814;10
'20110105 0340';16.8572273843;10
'20110105 0345';16.9343036409;10
'20110105 0350';17.0112607014;10
'20110105 0355';17.0880938237;10
'20110105 0400';17.164798273;10
'20110105 0405';17.2413693228;10
'20110105 0410';17.3178022544;10
'20110105 0415';17.3940923581;10
'20110105 0420';17.4702349325;10
'20110105 0425';17.5462252857;10
'20110105 0430';17.6220587349;10
'20110105 0435';17.6977306071;10
'20110105 0440';17.7732362393;10
'20110105 0445';17.8485709786;10
'20110105 0450';17.9237301828;10
'20110105 0455';17.9987092203;10
'20110105 0500';18.0735034707;10
'20110105 0505';18.1481083252;10
'20110105 0510';18.2225191864;10
'20110105 0515';18.296731469;10
'20110105 0520';18.3707405997;10
'20110105 0525';18.444542018;10
'20110105 0530';18.5181311761;10
'20110105 0535';18.5915035393;10
'20110105 0540';18.6646545863;10
'20110105 0545';18.7375798092;10
'20110105 0550';18.8102747142;10
'20110105 0555';18.8827348219;10
'20110105 0600';18.9549556669;10
'20110105 0605';19.0269327989;10
'20110105 0610';19.0986617825;10
'20110105 0615';19.1701381977;10
'20110105 0620';19.2413576398;10
'20110105 0625';19.3123157202;10
'20110105 0630';19.3830080663;10
'20110105 0635';19.4534303218;10
'20110105 0640';19.5235781473;10
'20110105 0645';19.59344722;10
'20110105 0650';19.6630332344;10
'20110105 0655';19.7323319026;10
'20110105 0700';19.8013389541;10
'20110105 0705';19.8700501367;10
'20110105 0710';19.9384612161;10
'20110105 0715';20.0065679767;10
'20110105 0720';20.0743662217;10
'20110105 0725';20.1418517732;10
'20110105 0730';20.2090204726;10
'20110105 0735';20.2758681807;10
'20110105 0740';20.3423907783;10
'20110105 0745';20.4085841661;10
'20110105 0750';20.4744442652;10
'20110105 0755';20.539967017;10
'20110105 0800';20.605148384;10
'20110105 0805';20.6699843495;10
'20110105 0810';20.7344709182;10
'20110105 0815';20.7986041163;10
'20110105 0820';20.8623799917;10
'20110105 0825';20.9257946145;10
'20110105 0830';20.9888440768;10
'20110105 0835';21.0515244935;10
'20110105 0840';21.1138320021;10
'20110105 0845';21.175762763;10
'20110105 0850';21.2373129599;10
'20110105 0855';21.2984787999;10
'20110105 0900';21.359256514;10
'20110105 0905';21.4196423567;10
'20110105 0910';21.4796326071;10
'20110105 0915';21.5392235684;10
'20110105 0920';21.5984115684;10
'20110105 0925';21.6571929599;10
'20110105 0930';21.7155641207;10
'20110105 0935';21.7735214537;10
'20110105 0940';21.8310613875;10
'20110105 0945';21.8881803764;10
'20110105 0950';21.9448749006;10
'20110105 0955';22.0011414665;10
'20110105 1000';22.0569766067;10
'20110105 1005';22.1123768806;10
'20110105 1010';22.1673388743;10
'20110105 1015';22.221859201;10
'20110105 1020';22.2759345009;10
'20110105 1025';22.3295614418;10
'20110105 1030';22.3827367192;10
'20110105 1035';22.4354570562;10
'20110105 1040';22.4877192041;10
'20110105 1045';22.5395199424;10
'20110105 1050';22.590856079;10
'20110105 1055';22.6417244505;10
'20110105 1100';22.6921219222;10
'20110105 1105';22.7420453886;10
'20110105 1110';22.7914917733;10
'20110105 1115';22.8404580292;10
'20110105 1120';22.888941139;10
'20110105 1125';22.9369381149;10
'20110105 1130';22.9844459995;10
'20110105 1135';23.031461865;10
'20110105 1140';23.0779828143;10
'20110105 1145';23.1240059807;10
'20110105 1150';23.1695285281;10
'20110105 1155';23.2145476513;10
'20110105 1200';23.2590605762;10
'20110105 1205';23.3030645597;10
'20110105 1210';23.3465568902;10
'20110105 1215';23.3895348876;10
'20110105 1220';23.4319959037;10
'20110105 1225';23.4739373217;10
'20110105 1230';23.5153565572;10
'20110105 1235';23.5562510578;10
'20110105 1240';23.5966183035;10
'20110105 1245';23.6364558069;10
'20110105 1250';23.675761113;10
'20110105 1255';23.7145317997;10
'20110105 1300';23.752765478;10
'20110105 1305';23.7904597918;10
'20110105 1310';23.8276124182;10
'20110105 1315';23.8642210678;10
'20110105 1320';23.9002834849;10
'20110105 1325';23.935797447;10
'20110105 1330';23.9707607657;10
'20110105 1335';24.0051712866;10
'20110105 1340';24.0390268892;10
'20110105 1345';24.0723254872;10
'20110105 1350';24.1050650287;10
'20110105 1355';24.1372434962;10
'20110105 1400';24.1688589068;10
'20110105 1405';24.1999093123;10
'20110105 1410';24.2303927993;10
'20110105 1415';24.2603074894;10
'20110105 1420';24.289651539;10
'20110105 1425';24.3184231401;10
'20110105 1430';24.3466205196;10
'20110105 1435';24.3742419399;10
'20110105 1440';24.401285699;10
'20110105 1445';24.4277501303;10
'20110105 1450';24.453633603;10
'20110105 1455';24.4789345222;10
'20110105 1500';24.5036513288;10
'20110105 1505';24.5277824996;10
'20110105 1510';24.5513265477;10
'20110105 1515';24.5742820222;10
'20110105 1520';24.5966475085;10
'20110105 1525';24.6184216284;10
'20110105 1530';24.6396030402;10
'20110105 1535';24.6601904386;10
'20110105 1540';24.6801825549;10
'20110105 1545';24.6995781573;10
'20110105 1550';24.7183760505;10
'20110105 1555';24.7365750761;10
'20110105 1600';24.7541741128;10
'20110105 1605';24.7711720759;10
'20110105 1610';24.787567918;10
'20110105 1615';24.8033606289;10
'20110105 1620';24.8185492353;10
'20110105 1625';24.8331328012;10
'20110105 1630';24.847110428;10
'20110105 1635';24.8604812543;10
'20110105 1640';24.8732444563;10
'20110105 1645';24.8853992474;10
'20110105 1650';24.8969448786;10
'20110105 1655';24.9078806385;10
'20110105 1700';24.9182058531;10
'20110105 1705';24.9279198862;10
'20110105 1710';24.9370221392;10
'20110105 1715';24.9455120512;10
'20110105 1720';24.953389099;10
'20110105 1725';24.9606527973;10
'20110105 1730';24.9673026984;10
'20110105 1735';24.9733383925;10
'20110105 1740';24.9787595078;10
'20110105 1745';24.98356571;10
'20110105 1750';24.9877567032;10
'20110105 1755';24.991332229;10
'20110105 1800';24.9942920671;10
'20110105 1805';24.9966360351;10
'20110105 1810';24.9983639886;10
'20110105 1815';24.999475821;10
'20110105 1820';24.9999714639;10
'20110105 1825';24.9998508867;10
'20110105 1830';24.9991140969;10
'20110105 1835';24.9977611398;10
'20110105 1840';24.9957920988;10
'20110105 1845';24.9932070954;10
'20110105 1850';24.9900062886;10
'20110105 1855';24.9861898759;10
'20110105 1900';24.9817580924;10
'20110105 1905';24.9767112111;10
'20110105 1910';24.9710495431;10
'20110105 1915';24.9647734372;10
'20110105 1920';24.9578832803;10
'20110105 1925';24.9503794968;15
'20110105 1930';24.9422625492;15
'20110105 1935';24.9335329377;15
'20110105 1940';24.9241912002;15
'20110105 1945';24.9142379124;15
'20110105 1950';24.9036736876;15
'20110105 1955';24.8924991768;15
'20110105 2000';24.8807150686;15
'20110105 2005';24.8683220891;15
'20110105 2010';24.8553210021;15
'20110105 2015';24.8417126087;15
'20110105 2020';24.8274977475;15
'20110105 2025';24.8126772944;15
'20110105 2030';24.7972521627;15
'20110105 2035';24.7812233029;15
'20110105 2040';24.7645917028;15
'20110105 2045';24.7473583873;15
'20110105 2050';24.7295244182;15
'20110105 2055';24.7110908946;15
'20110105 2100';24.6920589523;15
'20110105 2105';24.6724297643;15
'20110105 2110';24.6522045399;15
'20110105 2115';24.6313845257;15
'20110105 2120';24.6099710045;15
'20110105 2125';24.5879652959;15
'20110105 2130';24.565368756;15
'20110105 2135';24.5421827771;15
'20110105 2140';24.5184087882;15
'20110105 2145';24.494048254;15
'20110105 2150';24.4691026759;15
'20110105 2155';24.443573591;15
'20110105 2200';24.4174625725;15
'20110105 2205';24.3907712294;15
'20110105 2210';24.3635012065;15
'20110105 2215';24.3356541841;15
'20110105 2220';24.3072318784;15
'20110105 2225';24.2782360407;15
'20110105 2230';24.2486684579;15
'20110105 2235';24.2185309519;15
'20110105 2240';24.1878253799;15
'20110105 2245';24.156553634;15
'20110105 2250';24.1247176413;15
'20110105 2255';24.0923193636;15
'20110105 2300';24.0593607973;15
'20110105 2305';24.0258439734;15
'20110105 2310';23.9917709573;15
'20110105 2315';23.9571438487;15
'20110105 2320';23.9219647812;15
'20110105 2325';23.8862359229;15
'20110105 2330';23.8499594752;15
'20110105 2335';23.8131376738;15
'20110105 2340';23.7757727875;15
'20110105 2345';23.737867119;15
'20110105 2350';23.699423004;15
'20110105 2355';23.6604428116;15
'20110106 0000';23.6209289438;15
'20110106 0005';23.5808838355;15
'20110106 0010';23.5403099544;15
'20110106 0015';23.4992098008;15
'20110106 0020';23.4575859073;15
'20110106 0025';23.4154408389;15
'20110106 0030';23.3727771926;15
'20110106 0035';23.3295975975;15
'20110106 0040';23.2859047145;15
'20110106 0045';23.2417012359;15
'20110106 0050';23.1969898857;15
'20110106 0055';23.151773419;15
'20110106 0100';23.1060546223;15
'20110106 0105';23.0598363128;15
'20110106 0110';23.0131213386;15
'20110106 0115';22.9659125784;15
'20110106 0120';22.9182129412;15
'20110106 0125';22.8700253664;15
'20110106 0130';22.8213528235;15
'20110106 0135';22.7721983118;15
'20110106 0140';22.7225648602;15
'20110106 0145';22.6724555274;15
'20110106 0150';22.621873401;15
'20110106 0155';22.5708215982;15
'20110106 0200';22.5193032648;15
'20110106 0205';22.4673215756;15
'20110106 0210';22.4148797337;15
'20110106 0215';22.3619809707;15
'20110106 0220';22.3086285463;15
'20110106 0225';22.2548257483;15
'20110106 0230';22.2005758921;15
'20110106 0235';22.1458823207;15
'20110106 0240';22.0907484044;15
'20110106 0245';22.0351775407;15
'20110106 0250';21.9791731541;15
'20110106 0255';21.9227386955;15
'20110106 0300';21.8658776426;15
'20110106 0305';21.8085934994;15
'20110106 0310';21.7508897958;15
'20110106 0315';21.6927700876;15
'20110106 0320';21.6342379563;15
'20110106 0325';21.5752970088;15
'20110106 0330';21.5159508771;15
'20110106 0335';21.4562032183;15
'20110106 0340';21.3960577142;15
'20110106 0345';21.335518071;15
'20110106 0350';21.2745880193;15
'20110106 0355';21.2132713139;15
'20110106 0400';21.1515717331;15
'20110106 0405';21.089493079;15
'20110106 0410';21.027039177;15
'20110106 0415';20.9642138758;15
'20110106 0420';20.9010210466;15
'20110106 0425';20.8374645837;15
'20110106 0430';20.7735484034;15
'20110106 0435';20.7092764445;15
'20110106 0440';20.6446526675;15
'20110106 0445';20.5796810547;15
'20110106 0450';20.5143656097;15
'20110106 0455';20.4487103575;15
'20110106 0500';20.3827193439;15
'20110106 0505';20.3163966354;15
'20110106 0510';20.2497463188;15
'20110106 0515';20.1827725015;15
'20110106 0520';20.1154793104;15
'20110106 0525';20.0478708923;15
'20110106 0530';19.9799514133;15
'20110106 0535';19.9117250589;15
'20110106 0540';19.8431960333;15
'20110106 0545';19.7743685593;15
'20110106 0550';19.7052468783;15
'20110106 0555';19.6358352498;15
'20110106 0600';19.5661379509;15
'20110106 0605';19.4961592767;15
'20110106 0610';19.4259035393;15
'20110106 0615';19.355375068;15
'20110106 0620';19.2845782091;15
'20110106 0625';19.213517325;15
'20110106 0630';19.1421967949;15
'20110106 0635';19.0706210135;15
'20110106 0640';18.9987943916;15
'20110106 0645';18.9267213552;15
'20110106 0650';18.8544063457;15
'20110106 0655';18.7818538192;15
'20110106 0700';18.7090682467;15
'20110106 0705';18.6360541133;15
'20110106 0710';18.5628159183;15
'20110106 0715';18.4893581747;15
'20110106 0720';18.4156854094;15
'20110106 0725';18.341802162;15
'20110106 0730';18.2677129855;15
'20110106 0735';18.1934224453;15
'20110106 0740';18.1189351195;15
'20110106 0745';18.0442555981;15
'20110106 0750';17.9693884831;15
'20110106 0755';17.8943383878;15
'20110106 0800';17.8191099371;15
'20110106 0805';17.7437077666;15
'20110106 0810';17.668136523;15
'20110106 0815';17.5924008629;15
'20110106 0820';17.5165054534;15
'20110106 0825';17.4404549713;15
'20110106 0830';17.3642541031;15
'20110106 0835';17.2879075444;15
'20110106 0840';17.2114199998;15
'20110106 0845';17.1347961827;15
'20110106 0850';17.0580408148;15
'20110106 0855';16.9811586259;15
'20110106 0900';16.9041543537;15
'20110106 0905';16.8270327433;15
'20110106 0910';16.7497985472;15
'20110106 0915';16.6724565247;15
'20110106 0920';16.5950114418;15
'20110106 0925';16.5174680708;15
'20110106 0930';16.4398311901;15
'20110106 0935';16.3621055838;15
'20110106 0940';16.2842960417;15
'20110106 0945';16.2064073584;15
'20110106 0950';16.1284443336;15
'20110106 0955';16.0504117717;15
'20110106 1000';15.972314481;15
'20110106 1005';15.8941572743;15
'20110106 1010';15.8159449676;15
'20110106 1015';15.7376823806;15
'20110106 1020';15.659374336;15
'20110106 1025';15.5810256593;15
'20110106 1030';15.5026411785;15
'20110106 1035';15.4242257239;15
'20110106 1040';15.3457841276;15
'20110106 1045';15.2673212233;15
'20110106 1050';15.1888418461;15
'20110106 1055';15.110350832;15
